Lab05/part5/mycpu/cpu_wavedata.vcd
$date
	Mon Jun 05 19:42:11 2023
$end
$version
	Icarus Verilog
$end
$timescale
	1s
$end
$scope module cpu_tb $end
$var wire 32 ! PC [31:0] $end
$var reg 1 " CLK $end
$var reg 32 # INSTRUCTION [31:0] $end
$var reg 1 $ RESET $end
$scope module mycpu $end
$var wire 1 " CLK $end
$var wire 32 % INSTRUCTION [31:0] $end
$var wire 1 & PCSELECT $end
$var wire 1 $ RESET $end
$var wire 1 ' ZERO $end
$var wire 1 ( WRITEENABLE $end
$var wire 1 ) WIRE1 $end
$var wire 1 * SHIFT $end
$var wire 8 + REGOUT2 [7:0] $end
$var wire 8 , REGOUT1 [7:0] $end
$var wire 32 - PC_TARGET [31:0] $end
$var wire 32 . PC_NEXT [31:0] $end
$var wire 32 / PC_4 [31:0] $end
$var wire 32 0 PC [31:0] $end
$var wire 8 1 OPCODE [7:0] $end
$var wire 1 2 MUXSELECT2 $end
$var wire 1 3 MUXSELECT1 $end
$var wire 8 4 MUXOUT2 [7:0] $end
$var wire 8 5 MUXOUT1 [7:0] $end
$var wire 1 6 JUMP $end
$var wire 8 7 IMMEDIATE [7:0] $end
$var wire 8 8 COMPOUT [7:0] $end
$var wire 2 9 BRANCH [1:0] $end
$var wire 8 : ALURESULT [7:0] $end
$var wire 8 ; ALUOUT [7:0] $end
$var wire 3 < ALUOP [2:0] $end
$var wire 8 = ALUIN1 [7:0] $end
$scope module Alu $end
$var wire 8 > sra_result [7:0] $end
$var wire 8 ? sl_result [7:0] $end
$var wire 8 @ ror_result [7:0] $end
$var wire 8 A or_result [7:0] $end
$var wire 8 B mult_result [7:0] $end
$var wire 8 C forward_result [7:0] $end
$var wire 8 D and_result [7:0] $end
$var wire 8 E add_result [7:0] $end
$var wire 1 ' ZERO $end
$var wire 3 F SELECT [0:2] $end
$var wire 8 G RESULT [7:0] $end
$var wire 8 H DATA2 [7:0] $end
$var wire 8 I DATA1 [7:0] $end
$upscope $end
$scope module Control_Unit $end
$var wire 8 J OPCODE [7:0] $end
$var reg 3 K ALUOP [2:0] $end
$var reg 2 L BRANCH [1:0] $end
$var reg 1 3 COMP_SELECT $end
$var reg 1 2 IMMEDIATE_SELECT $end
$var reg 1 6 JUMP $end
$var reg 1 * SHIFT $end
$var reg 1 ( WRITEENABLE $end
$upscope $end
$scope module Mux1 $end
$var wire 1 3 SELECT $end
$var wire 8 M DATA2 [7:0] $end
$var wire 8 N DATA1 [7:0] $end
$var reg 8 O OUTPUT [7:0] $end
$upscope $end
$scope module Mux2 $end
$var wire 8 P DATA1 [7:0] $end
$var wire 8 Q DATA2 [7:0] $end
$var wire 1 2 SELECT $end
$var reg 8 R OUTPUT [7:0] $end
$upscope $end
$scope module Mux3 $end
$var wire 1 & SELECT $end
$var wire 32 S DATA2 [31:0] $end
$var wire 32 T DATA1 [31:0] $end
$var reg 32 U OUTPUT [31:0] $end
$upscope $end
$scope module MuxBranch $end
$var wire 1 ' DATA1 $end
$var wire 2 V SELECT [1:0] $end
$var reg 1 ) OUTPUT $end
$upscope $end
$scope module Mux_Revers1 $end
$var wire 1 * SELECT $end
$var wire 8 W DATA [7:0] $end
$var reg 8 X OUTPUT [7:0] $end
$upscope $end
$scope module Mux_Revers2 $end
$var wire 8 Y DATA [7:0] $end
$var wire 1 * SELECT $end
$var reg 8 Z OUTPUT [7:0] $end
$upscope $end
$scope module Pc $end
$var wire 1 " CLK $end
$var wire 32 [ PC_TO [31:0] $end
$var wire 1 $ RESET $end
$var wire 32 \ PC_NEXT [31:0] $end
$var reg 32 ] PC [31:0] $end
$upscope $end
$scope module Pc_Adder $end
$var wire 32 ^ DATA1 [31:0] $end
$var wire 8 _ DATA2 [7:0] $end
$var wire 32 ` RESULT [31:0] $end
$upscope $end
$scope module Reg_File $end
$var wire 1 " CLK $end
$var wire 8 a IN [7:0] $end
$var wire 3 b INADDRESS [2:0] $end
$var wire 8 c OUT1 [7:0] $end
$var wire 3 d OUT1ADDRESS [2:0] $end
$var wire 8 e OUT2 [7:0] $end
$var wire 3 f OUT2ADDRESS [2:0] $end
$var wire 1 $ RESET $end
$var wire 1 ( WRITE $end
$upscope $end
$scope module Two_Com $end
$var wire 8 g DATA [7:0] $end
$var wire 8 h OUT [7:0] $end
$upscope $end
$upscope $end
$upscope $end
$scope module cpu_tb $end
$scope module mycpu $end
$scope module Reg_File $end
$var reg 8 i \registers[0] [7:0] $end
$upscope $end
$upscope $end
$upscope $end
$scope module cpu_tb $end
$scope module mycpu $end
$scope module Reg_File $end
$var reg 8 j \registers[1] [7:0] $end
$upscope $end
$upscope $end
$upscope $end
$scope module cpu_tb $end
$scope module mycpu $end
$scope module Reg_File $end
$var reg 8 k \registers[2] [7:0] $end
$upscope $end
$upscope $end
$upscope $end
$scope module cpu_tb $end
$scope module mycpu $end
$scope module Reg_File $end
$var reg 8 l \registers[3] [7:0] $end
$upscope $end
$upscope $end
$upscope $end
$scope module cpu_tb $end
$scope module mycpu $end
$scope module Reg_File $end
$var reg 8 m \registers[4] [7:0] $end
$upscope $end
$upscope $end
$upscope $end
$scope module cpu_tb $end
$scope module mycpu $end
$scope module Reg_File $end
$var reg 8 n \registers[5] [7:0] $end
$upscope $end
$upscope $end
$upscope $end
$scope module cpu_tb $end
$scope module mycpu $end
$scope module Reg_File $end
$var reg 8 o \registers[6] [7:0] $end
$upscope $end
$upscope $end
$upscope $end
$scope module cpu_tb $end
$scope module mycpu $end
$scope module Reg_File $end
$var reg 8 p \registers[7] [7:0] $end
$upscope $end
$upscope $end
$upscope $end
$enddefinitions $end
$comment Show the parameter values. $end
$dumpall
$end
#0
$dumpvars
bx p
bx o
bx n
bx m
bx l
bx k
bx j
bx i
bx h
bx g
bx f
bx e
bx d
bx c
bx b
bx a
bx `
bx _
bx ^
bx ]
bx \
bx [
bx Z
bx Y
bx X
bx W
bx V
bx U
bx T
bx S
bx R
bx Q
bx P
bx O
bx N
bx M
bx L
bx K
bx J
bx I
bx H
bx G
bx F
bx E
bx D
bx C
bx B
bx A
bx @
bx ?
bx >
bx =
bx <
bx ;
bx :
bx 9
bx 8
bx 7
x6
bx 5
bx 4
x3
x2
bx 1
bx 0
bx /
bx .
bx -
bx ,
bx +
x*
x)
x(
x'
x&
bx %
1$
bx #
0"
bx !
$end
#4
1"
#5
b0 !
b0 0
b0 ]
b0 p
b0 o
b0 n
b0 m
b0 l
b0 k
b0 j
b0 i
0$
#6
b100 .
b100 U
b100 [
b100 /
b100 T
b100 \
b100 ^
#7
b100000 7
b100000 Q
b0 f
b0 d
b0 b
b0 _
b0 1
b0 J
b100000 #
b100000 %
#8
0&
0)
b100000 4
b100000 H
b100000 R
0*
b0 9
b0 L
b0 V
06
b0 <
b0 F
b0 K
12
03
1(
0"
#9
b100000 :
b100000 Z
b100000 a
b100000 ;
b100000 G
b100000 Y
b0 5
b0 O
b0 P
b0 =
b0 I
b0 X
bx1xxxxx A
b0x00000 D
b0 ?
b100000 C
b0 +
b0 N
b0 e
b0 g
b0 ,
b0 W
b0 c
b100 -
b100 S
b100 `
#10
b100000 A
b0 D
b0 >
b0 @
b0 8
b0 M
b0 h
#11
0'
b0 B
b100000 E
#12
1"
#13
b100000 i
b100 !
b100 0
b100 ]
#14
b1000 .
b1000 U
b1000 [
b1000 /
b1000 T
b1000 \
b1000 ^
#15
b1 4
b1 H
b1 R
b1 7
b1 Q
b1 f
b1 b
b1 _
b100000 =
b100000 I
b100000 X
b100000 5
b100000 O
b100000 P
b10000000000000001 #
b10000000000000001 %
b100000 ,
b100000 W
b100000 c
b100000 +
b100000 N
b100000 e
b100000 g
#16
b1 :
b1 Z
b1 a
b1 ;
b1 G
b1 Y
b100001 A
b10000 @
b1000000 ?
b10000 >
b1 C
b11100000 8
b11100000 M
b11100000 h
0"
#17
b0 5
b0 O
b0 P
b100000 B
b0 +
b0 N
b0 e
b0 g
b1100 -
b1100 S
b1100 `
b100001 E
#18
b0 8
b0 M
b0 h
#20
1"
#21
b1000 !
b1000 0
b1000 ]
b1 j
#22
b1100 .
b1100 U
b1100 [
b1100 /
b1100 T
b1100 \
b1100 ^
#23
b101 4
b101 H
b101 R
b101 7
b101 Q
b101 f
b1 d
b10 b
b10 _
b1101 1
b1101 J
b1 5
b1 O
b1 P
b1101000000100000000100000101 #
b1101000000100000000100000101 %
b1 +
b1 N
b1 e
b1 g
#24
b0 :
b0 Z
b0 a
b0 ;
b0 G
b0 Y
b100101 A
b1 >
b0 ?
b1 @
b101 <
b101 F
b101 K
b101 C
b11111111 8
b11111111 M
b11111111 h
0"
#25
b0 5
b0 O
b0 P
b1 =
b1 I
b1 X
b10100000 B
b100101 E
b0 +
b0 N
b0 e
b0 g
b1 ,
b1 W
b1 c
b10100 -
b10100 S
b10100 `
#26
b100000 :
b100000 Z
b100000 a
b100000 ;
b100000 G
b100000 Y
b101 A
b1 D
b1000 @
b100000 ?
b0 >
b0 8
b0 M
b0 h
#27
b101 B
b110 E
#28
1"
#29
b100000 k
b1100 !
b1100 0
b1100 ]
#30
b10000 .
b10000 U
b10000 [
b10000 /
b10000 T
b10000 \
b10000 ^
#31
b10 4
b10 H
b10 R
b10 7
b10 Q
b10 f
b0 d
b11 b
b11 _
b1110 1
b1110 J
b1110000000110000000000000010 #
b1110000000110000000000000010 %
#32
b100 ;
b100 G
b100 Y
b10000000 =
b10000000 I
b10000000 X
b100000 :
b100000 Z
b100000 a
b11 A
b0 D
b0 >
b100 ?
b1000000 @
b10 C
1*
0"
#33
b0 :
b0 Z
b0 a
b0 ;
b0 G
b0 Y
b100000 5
b100000 O
b100000 P
b100 =
b100 I
b100 X
b10000010 A
b100000 @
b0 ?
b11100000 >
b100000 +
b100000 N
b100000 e
b100000 g
b100000 ,
b100000 W
b100000 c
b11100 -
b11100 S
b11100 `
#34
b1000 :
b1000 Z
b1000 a
b10000 ;
b10000 G
b10000 Y
b110 A
b1 >
b10000 ?
b1 @
b11100000 8
b11100000 M
b11100000 h
#35
b1000 B
#36
1"
#37
b10000 !
b10000 0
b10000 ]
b1000 l
#38
b10100 .
b10100 U
b10100 [
b10100 /
b10100 T
b10100 \
b10100 ^
#39
b0 4
b0 H
b0 R
b0 7
b0 Q
b0 f
b1 d
b1 b
b1 _
b10001 1
b10001 J
b10001000000010000000100000000 #
b10001000000010000000100000000 %
#40
b11100 .
b11100 U
b11100 [
1&
b100000 =
b100000 I
b100000 X
b110 :
b110 Z
b110 a
1)
b110 ;
b110 G
b110 Y
b11100000 4
b11100000 H
b11100000 R
b11100000 5
b11100000 O
b11100000 P
b100 A
b100 @
b100 ?
b100 >
b0 C
0*
b10 9
b10 L
b10 V
b1 <
b1 F
b1 K
02
13
0(
0"
#41
b1 =
b1 I
b1 X
b11000 .
b11000 U
b11000 [
b11100000 A
b100000 D
b0 >
b0 ?
b100000 @
b11100000 C
b1 ,
b1 W
b1 c
b11000 -
b11000 S
b11000 `
#42
b11100001 A
b0 D
b1 @
b0 ?
b0 >
#43
b11100001 :
b11100001 Z
b11100001 a
b11100001 ;
b11100001 G
b11100001 Y
b11100000 B
b11100001 E
#44
1"
#45
b11000 !
b11000 0
b11000 ]
#46
b11100 /
b11100 T
b11100 \
b11100 ^
#47
b10 7
b10 Q
b10 f
b0 b
b1000 _
b111 1
b111 J
b111000010000000000100000010 #
b111000010000000000100000010 %
#48
b11100 .
b11100 U
b11100 [
0&
0)
b1 9
b1 L
b1 V
0"
#49
b111100 -
b111100 S
b111100 `
#52
1"
#53
b11100 !
b11100 0
b11100 ]
#54
b100000 .
b100000 U
b100000 [
b100000 /
b100000 T
b100000 \
b100000 ^
#55
b0 7
b0 Q
b0 f
b0 d
b11 b
b11 _
b110 1
b110 J
b110000000110000000000000000 #
b110000000110000000000000000 %
#56
b111100 .
b111100 U
b111100 [
b11100000 :
b11100000 Z
b11100000 a
b100000 4
b100000 H
b100000 R
1&
b11100000 ;
b11100000 G
b11100000 Y
b100000 5
b100000 O
b100000 P
b0 9
b0 L
b0 V
16
b0 <
b0 F
b0 K
03
0"
#57
b100000 :
b100000 Z
b100000 a
b100000 ;
b100000 G
b100000 Y
b100000 =
b100000 I
b100000 X
b101100 .
b101100 U
b101100 [
b100001 A
b0 >
b0 ?
b1 @
b100000 C
b100000 ,
b100000 W
b100000 c
b101100 -
b101100 S
b101100 `
#58
b100000 A
b100000 D
b100000 @
b0 ?
b0 >
#59
b0 B
b1000000 E
#60
1"
#61
b101100 !
b101100 0
b101100 ]
#62
b110000 /
b110000 T
b110000 \
b110000 ^
#63
b10 d
b10 1
b10 J
b10000000110000001000000000 #
b10000000110000001000000000 %
#64
b1000000 :
b1000000 Z
b1000000 a
0&
b1000000 ;
b1000000 G
b1000000 Y
b110000 .
b110000 U
b110000 [
06
b1 <
b1 F
b1 K
1(
b111100 -
b111100 S
b111100 `
0"
#68
1"
#69
b1000000 l
b110000 !
b110000 0
b110000 ]
#70
b110100 .
b110100 U
b110100 [
b110100 /
b110100 T
b110100 \
b110100 ^
#71
b1 7
b1 Q
b1 f
b11 d
b100 b
b100 _
b11 1
b11 J
b11000001000000001100000001 #
b11000001000000001100000001 %
#72
b11100000 4
b11100000 H
b11100000 R
b11100000 5
b11100000 O
b11100000 P
13
0"
#73
b1000000 =
b1000000 I
b1000000 X
b11100000 A
b0 >
b0 ?
b100000 @
b11100000 C
b1 +
b1 N
b1 e
b1 g
b1000000 ,
b1000000 W
b1000000 c
b1000100 -
b1000100 S
b1000100 `
#74
b11111111 4
b11111111 H
b11111111 R
b11111111 5
b11111111 O
b11111111 P
b1000000 D
b1000000 @
b0 ?
b0 >
b11111111 8
b11111111 M
b11111111 h
#75
b11111111 A
b0 >
b0 ?
b10000000 @
b11111111 C
#76
b111111 :
b111111 Z
b111111 a
b111111 ;
b111111 G
b111111 Y
b11000000 B
b111111 E
1"
#77
b110100 !
b110100 0
b110100 ]
b111111 m
#78
b111000 .
b111000 U
b111000 [
b111000 /
b111000 T
b111000 \
b111000 ^
#79
b1110101 7
b1110101 Q
b101 f
b0 d
b0 b
b0 _
b0 1
b0 J
b1110101 #
b1110101 %
#80
b11111111 :
b11111111 Z
b11111111 a
b11111111 ;
b11111111 G
b11111111 Y
b1110101 4
b1110101 H
b1110101 R
b1 5
b1 O
b1 P
b0 <
b0 F
b0 K
12
03
0"
#81
b1110101 :
b1110101 Z
b1110101 a
b1110101 ;
b1110101 G
b1110101 Y
b0 5
b0 O
b0 P
b100000 =
b100000 I
b100000 X
b1110101 A
b10 @
b0 ?
b0 >
b1110101 C
b0 +
b0 N
b0 e
b0 g
b100000 ,
b100000 W
b100000 c
b111000 -
b111000 S
b111000 `
#82
b100000 D
b0 >
b0 ?
b1 @
b0 8
b0 M
b0 h
#83
b10100000 B
b10010101 E
#84
1"
#85
b1110101 i
b111000 !
b111000 0
b111000 ]
#86
b111100 .
b111100 U
b111100 [
b111100 /
b111100 T
b111100 \
b111100 ^
#87
b10010010 4
b10010010 H
b10010010 R
b10010010 7
b10010010 Q
b10 f
b1 b
b1 _
b1110101 =
b1110101 I
b1110101 X
b10000000010010010 #
b10000000010010010 %
b1110101 ,
b1110101 W
b1110101 c
#88
b10010010 :
b10010010 Z
b10010010 a
b10010010 ;
b10010010 G
b10010010 Y
b11110111 A
b10010010 C
b10000 D
b1011101 @
b0 ?
b0 >
0"
#89
b100000 5
b100000 O
b100000 P
b100000 +
b100000 N
b100000 e
b100000 g
b1000000 -
b1000000 S
b1000000 `
b10111010 B
b111 E
#90
b11100000 8
b11100000 M
b11100000 h
#92
1"
#93
b111100 !
b111100 0
b111100 ]
b10010010 j
#94
b1000000 .
b1000000 U
b1000000 [
b1000000 /
b1000000 T
b1000000 \
b1000000 ^
#95
b0 4
b0 H
b0 R
b0 7
b0 Q
b0 f
b1 d
b101 b
b101 _
b100 1
b100 J
b100000001010000000100000000 #
b100000001010000000100000000 %
#96
b0 :
b0 Z
b0 a
b0 ;
b0 G
b0 Y
b100000 4
b100000 H
b100000 R
b1110101 A
b0 D
b1110101 >
b1110101 ?
b1110101 @
b0 C
b10 <
b10 F
b10 K
02
0"
#97
b100000 :
b100000 Z
b100000 a
b1110101 4
b1110101 H
b1110101 R
b100000 ;
b100000 G
b100000 Y
b1110101 5
b1110101 O
b1110101 P
b10010010 =
b10010010 I
b10010010 X
b100000 D
b1110101 @
b0 ?
b0 >
b100000 C
b1110101 +
b1110101 N
b1110101 e
b1110101 g
b10010010 ,
b10010010 W
b10010010 c
b1010100 -
b1010100 S
b1010100 `
#98
b10000 :
b10000 Z
b10000 a
b10000 ;
b10000 G
b10000 Y
b1110101 C
b11110111 A
b10000 D
b11111111 >
b0 ?
b10010100 @
b10001011 8
b10001011 M
b10001011 h
#100
1"
#101
b10000 n
b1000000 !
b1000000 0
b1000000 ]
#102
b1000100 .
b1000100 U
b1000100 [
b1000100 /
b1000100 T
b1000100 \
b1000100 ^
#103
b10 7
b10 Q
b10 f
b101 d
b110 b
b110 _
b101 1
b101 J
b101000001100000010100000010 #
b101000001100000010100000010 %
#104
b11110111 :
b11110111 Z
b11110111 a
b11110111 ;
b11110111 G
b11110111 Y
b11 <
b11 F
b11 K
0"
#105
b100000 4
b100000 H
b100000 R
b100000 5
b100000 O
b100000 P
b10000 =
b10000 I
b10000 X
b100000 +
b100000 N
b100000 e
b100000 g
b10000 ,
b10000 W
b10000 c
b1011100 -
b1011100 S
b1011100 `
#106
b110000 :
b110000 Z
b110000 a
b110000 ;
b110000 G
b110000 Y
b0 D
b100000 C
b110000 A
b10000 @
b0 ?
b0 >
b11100000 8
b11100000 M
b11100000 h
#107
b0 B
b110000 E
#108
1"
#109
b1000100 !
b1000100 0
b1000100 ]
b110000 o
#110
b1001000 .
b1001000 U
b1001000 [
b1001000 /
b1001000 T
b1001000 \
b1001000 ^
#111
b1 d
b101 b
b101 _
b100 1
b100 J
b100000001010000000100000010 #
b100000001010000000100000010 %
#112
b0 :
b0 Z
b0 a
b0 ;
b0 G
b0 Y
b10 <
b10 F
b10 K
0"
#113
b10010010 =
b10010010 I
b10010010 X
b10010010 ,
b10010010 W
b10010010 c
#114
b10110010 A
b11111111 >
b0 ?
b10010010 @
#115
b1000000 B
b10110010 E
#116
1"
#117
b0 n
b1001000 !
b1001000 0
b1001000 ]
#118
b1001100 .
b1001100 U
b1001100 [
b1001100 /
b1001100 T
b1001100 \
b1001100 ^
#119
bx 7
bx Q
bx f
bx d
bx b
bx _
bx 1
bx J
bx #
bx %
#120
0"
#121
bx 4
bx H
bx R
bx 5
bx O
bx P
bx =
bx I
bx X
bx +
bx N
bx e
bx g
bx ,
bx W
bx c
bx -
bx S
bx `
#122
bx :
bx Z
bx a
bx ;
bx G
bx Y
bx C
bx A
bx D
bx @
bx ?
bx >
bx 8
bx M
bx h
#123
x'
bx B
bx E
#124
1"
#125
b1001100 !
b1001100 0
b1001100 ]
#126
b1010000 .
b1010000 U
b1010000 [
b1010000 /
b1010000 T
b1010000 \
b1010000 ^
#128
0"
#132
1"
#133
b1010000 !
b1010000 0
b1010000 ]
#134
b1010100 .
b1010100 U
b1010100 [
b1010100 /
b1010100 T
b1010100 \
b1010100 ^
#136
0"
#140
1"
#141
b1010100 !
b1010100 0
b1010100 ]
#142
b1011000 .
b1011000 U
b1011000 [
b1011000 /
b1011000 T
b1011000 \
b1011000 ^
#144
0"
#148
1"
#149
b1011000 !
b1011000 0
b1011000 ]
#150
b1011100 .
b1011100 U
b1011100 [
b1011100 /
b1011100 T
b1011100 \
b1011100 ^
