Lab05/part5/mycpu/cpu_wavedata.vcd
$date
	Mon Jun 05 21:48:29 2023
$end
$version
	Icarus Verilog
$end
$timescale
	1s
$end
$scope module cpu_tb $end
$var wire 32 ! PC [31:0] $end
$var reg 1 " CLK $end
$var reg 32 # INSTRUCTION [31:0] $end
$var reg 1 $ RESET $end
$scope module mycpu $end
$var wire 1 " CLK $end
$var wire 32 % INSTRUCTION [31:0] $end
$var wire 1 & PCSELECT $end
$var wire 1 $ RESET $end
$var wire 1 ' ZERO $end
$var wire 1 ( WRITEENABLE $end
$var wire 1 ) WIRE1 $end
$var wire 1 * SHIFT $end
$var wire 8 + REGOUT2 [7:0] $end
$var wire 8 , REGOUT1 [7:0] $end
$var wire 32 - PC_TARGET [31:0] $end
$var wire 32 . PC_NEXT [31:0] $end
$var wire 32 / PC_4 [31:0] $end
$var wire 32 0 PC [31:0] $end
$var wire 8 1 OPCODE [7:0] $end
$var wire 1 2 MUXSELECT2 $end
$var wire 1 3 MUXSELECT1 $end
$var wire 8 4 MUXOUT2 [7:0] $end
$var wire 8 5 MUXOUT1 [7:0] $end
$var wire 1 6 JUMP $end
$var wire 8 7 IMMEDIATE [7:0] $end
$var wire 8 8 COMPOUT [7:0] $end
$var wire 2 9 BRANCH [1:0] $end
$var wire 8 : ALURESULT [7:0] $end
$var wire 8 ; ALUOUT [7:0] $end
$var wire 3 < ALUOP [2:0] $end
$var wire 8 = ALUIN1 [7:0] $end
$scope module Alu $end
$var wire 8 > sra_result [7:0] $end
$var wire 8 ? sl_result [7:0] $end
$var wire 8 @ ror_result [7:0] $end
$var wire 8 A or_result [7:0] $end
$var wire 8 B mult_result [7:0] $end
$var wire 8 C forward_result [7:0] $end
$var wire 8 D and_result [7:0] $end
$var wire 8 E add_result [7:0] $end
$var wire 1 ' ZERO $end
$var wire 3 F SELECT [0:2] $end
$var wire 8 G RESULT [7:0] $end
$var wire 8 H DATA2 [7:0] $end
$var wire 8 I DATA1 [7:0] $end
$upscope $end
$scope module Control_Unit $end
$var wire 8 J OPCODE [7:0] $end
$var reg 3 K ALUOP [2:0] $end
$var reg 2 L BRANCH [1:0] $end
$var reg 1 3 COMP_SELECT $end
$var reg 1 2 IMMEDIATE_SELECT $end
$var reg 1 6 JUMP $end
$var reg 1 * SHIFT $end
$var reg 1 ( WRITEENABLE $end
$upscope $end
$scope module Mux1 $end
$var wire 1 3 SELECT $end
$var wire 8 M DATA2 [7:0] $end
$var wire 8 N DATA1 [7:0] $end
$var reg 8 O OUTPUT [7:0] $end
$upscope $end
$scope module Mux2 $end
$var wire 8 P DATA1 [7:0] $end
$var wire 8 Q DATA2 [7:0] $end
$var wire 1 2 SELECT $end
$var reg 8 R OUTPUT [7:0] $end
$upscope $end
$scope module Mux3 $end
$var wire 1 & SELECT $end
$var wire 32 S DATA2 [31:0] $end
$var wire 32 T DATA1 [31:0] $end
$var reg 32 U OUTPUT [31:0] $end
$upscope $end
$scope module MuxBranch $end
$var wire 1 ' DATA1 $end
$var wire 2 V SELECT [1:0] $end
$var reg 1 ) OUTPUT $end
$upscope $end
$scope module Mux_Revers1 $end
$var wire 1 * SELECT $end
$var wire 8 W DATA [7:0] $end
$var reg 8 X OUTPUT [7:0] $end
$upscope $end
$scope module Mux_Revers2 $end
$var wire 8 Y DATA [7:0] $end
$var wire 1 * SELECT $end
$var reg 8 Z OUTPUT [7:0] $end
$upscope $end
$scope module Pc $end
$var wire 1 " CLK $end
$var wire 32 [ PC_TO [31:0] $end
$var wire 1 $ RESET $end
$var wire 32 \ PC_NEXT [31:0] $end
$var reg 32 ] PC [31:0] $end
$upscope $end
$scope module Pc_Adder $end
$var wire 32 ^ DATA1 [31:0] $end
$var wire 8 _ DATA2 [7:0] $end
$var wire 32 ` RESULT [31:0] $end
$upscope $end
$scope module Reg_File $end
$var wire 1 " CLK $end
$var wire 8 a IN [7:0] $end
$var wire 3 b INADDRESS [2:0] $end
$var wire 8 c OUT1 [7:0] $end
$var wire 3 d OUT1ADDRESS [2:0] $end
$var wire 8 e OUT2 [7:0] $end
$var wire 3 f OUT2ADDRESS [2:0] $end
$var wire 1 $ RESET $end
$var wire 1 ( WRITE $end
$upscope $end
$scope module Two_Com $end
$var wire 8 g DATA [7:0] $end
$var wire 8 h OUT [7:0] $end
$upscope $end
$upscope $end
$upscope $end
$scope module cpu_tb $end
$scope module mycpu $end
$scope module Reg_File $end
$var reg 8 i \registers[0] [7:0] $end
$upscope $end
$upscope $end
$upscope $end
$scope module cpu_tb $end
$scope module mycpu $end
$scope module Reg_File $end
$var reg 8 j \registers[1] [7:0] $end
$upscope $end
$upscope $end
$upscope $end
$scope module cpu_tb $end
$scope module mycpu $end
$scope module Reg_File $end
$var reg 8 k \registers[2] [7:0] $end
$upscope $end
$upscope $end
$upscope $end
$scope module cpu_tb $end
$scope module mycpu $end
$scope module Reg_File $end
$var reg 8 l \registers[3] [7:0] $end
$upscope $end
$upscope $end
$upscope $end
$scope module cpu_tb $end
$scope module mycpu $end
$scope module Reg_File $end
$var reg 8 m \registers[4] [7:0] $end
$upscope $end
$upscope $end
$upscope $end
$scope module cpu_tb $end
$scope module mycpu $end
$scope module Reg_File $end
$var reg 8 n \registers[5] [7:0] $end
$upscope $end
$upscope $end
$upscope $end
$scope module cpu_tb $end
$scope module mycpu $end
$scope module Reg_File $end
$var reg 8 o \registers[6] [7:0] $end
$upscope $end
$upscope $end
$upscope $end
$scope module cpu_tb $end
$scope module mycpu $end
$scope module Reg_File $end
$var reg 8 p \registers[7] [7:0] $end
$upscope $end
$upscope $end
$upscope $end
$enddefinitions $end
$comment Show the parameter values. $end
$dumpall
$end
#0
$dumpvars
bx p
bx o
bx n
bx m
bx l
bx k
bx j
bx i
bx h
bx g
bx f
bx e
bx d
bx c
bx b
bx a
bx `
bx _
bx ^
bx ]
bx \
bx [
bx Z
bx Y
bx X
bx W
bx V
bx U
bx T
bx S
bx R
bx Q
bx P
bx O
bx N
bx M
bx L
bx K
bx J
bx I
bx H
bx G
bx F
bx E
bx D
bx C
bx B
bx A
bx @
bx ?
bx >
bx =
bx <
bx ;
bx :
bx 9
bx 8
bx 7
x6
bx 5
bx 4
x3
x2
bx 1
bx 0
bx /
bx .
bx -
bx ,
bx +
x*
x)
x(
x'
x&
bx %
1$
bx #
0"
bx !
$end
#4
1"
#5
b0 !
b0 0
b0 ]
b0 p
b0 o
b0 n
b0 m
b0 l
b0 k
b0 j
b0 i
0$
#6
b100 .
b100 U
b100 [
b100 /
b100 T
b100 \
b100 ^
#7
b101 7
b101 Q
b101 f
b0 d
b0 b
b0 _
b0 1
b0 J
b101 #
b101 %
#8
b0xxxxxxx B
0&
0)
b101 4
b101 H
b101 R
0*
b0 9
b0 L
b0 V
06
b0 <
b0 F
b0 K
12
03
1(
0"
#9
b101 :
b101 Z
b101 a
b101 ;
b101 G
b101 Y
b0 5
b0 O
b0 P
b0 =
b0 I
b0 X
bx1x1 A
b0x0x D
bx00000 ?
b101 C
b0 +
b0 N
b0 e
b0 g
b0 ,
b0 W
b0 c
b100 -
b100 S
b100 `
#10
b101 A
b0 D
b0 >
b0 ?
b0 @
b0 8
b0 M
b0 h
#11
0'
b0 B
b101 E
#12
1"
#13
b101 i
b100 !
b100 0
b100 ]
#14
b1000 .
b1000 U
b1000 [
b1000 /
b1000 T
b1000 \
b1000 ^
#15
b11 4
b11 H
b11 R
b11 7
b11 Q
b11 f
b1 b
b1 _
b101 =
b101 I
b101 X
b10000000000000011 #
b10000000000000011 %
b101 ,
b101 W
b101 c
#16
b11 :
b11 Z
b11 a
b11 ;
b11 G
b11 Y
b111 A
b11 C
b1 D
b10100000 @
b101000 ?
b0 >
0"
#17
b1111 B
b1100 -
b1100 S
b1100 `
b1000 E
#20
1"
#21
b1000 !
b1000 0
b1000 ]
b11 j
#22
b1100 .
b1100 U
b1100 [
b1100 /
b1100 T
b1100 \
b1100 ^
#23
b0 4
b0 H
b0 R
b0 7
b0 Q
b0 f
b1 d
b10 b
b10 _
b1100 1
b1100 J
b1100000000100000000100000000 #
b1100000000100000000100000000 %
#24
b1111 :
b1111 Z
b1111 a
b1111 ;
b1111 G
b1111 Y
b101 A
b0 D
b101 >
b101 ?
b101 @
b0 C
b100 <
b100 F
b100 K
02
0"
#25
b0 :
b0 Z
b0 a
b101 4
b101 H
b101 R
b0 ;
b0 G
b0 Y
b101 5
b101 O
b101 P
b11 =
b11 I
b11 X
b0 B
b101 E
b101 +
b101 N
b101 e
b101 g
b11 ,
b11 W
b11 c
b10100 -
b10100 S
b10100 `
#26
b1 D
b101 C
b111 A
b11000 @
b1100000 ?
b0 >
b11111011 8
b11111011 M
b11111011 h
#27
b1111 :
b1111 Z
b1111 a
b1111 ;
b1111 G
b1111 Y
b1111 B
b1000 E
#28
1"
#29
b1111 k
b1100 !
b1100 0
b1100 ]
#30
b10000 .
b10000 U
b10000 [
b10000 /
b10000 T
b10000 \
b10000 ^
#31
b1 7
b1 Q
b1 f
b10 d
b11 b
b11 _
b1100000000110000001000000001 #
b1100000000110000001000000001 %
#32
0"
#33
b11 4
b11 H
b11 R
b11 5
b11 O
b11 P
b1111 =
b1111 I
b1111 X
b11 +
b11 N
b11 e
b11 g
b1111 ,
b1111 W
b1111 c
b11100 -
b11100 S
b11100 `
#34
b11 C
b1111 A
b11 D
b1 >
b1111000 ?
b11100001 @
b11111101 8
b11111101 M
b11111101 h
#35
b101101 :
b101101 Z
b101101 a
b101101 ;
b101101 G
b101101 Y
b101101 B
b10010 E
#36
1"
#37
b10000 !
b10000 0
b10000 ]
b101101 l
#38
b10100 .
b10100 U
b10100 [
b10100 /
b10100 T
b10100 \
b10100 ^
#39
b101 7
b101 Q
b101 f
b1 d
b10 b
b10 _
b1101 1
b1101 J
b1101000000100000000100000101 #
b1101000000100000000100000101 %
#40
b1111000 :
b1111000 Z
b1111000 a
b1111000 ;
b1111000 G
b1111000 Y
b101 4
b101 H
b101 R
b101 <
b101 F
b101 K
12
0"
#41
b11100000 :
b11100000 Z
b11100000 a
b11100000 ;
b11100000 G
b11100000 Y
b0 5
b0 O
b0 P
b11 =
b11 I
b11 X
b101 D
b1111000 @
b11100000 ?
b0 >
b101 C
b0 +
b0 N
b0 e
b0 g
b11 ,
b11 W
b11 c
#42
b1100000 :
b1100000 Z
b1100000 a
b1100000 ;
b1100000 G
b1100000 Y
b111 A
b1 D
b0 >
b1100000 ?
b11000 @
b0 8
b0 M
b0 h
b101111 B
#43
b1111 B
b1000 E
#44
1"
#45
b1100000 k
b10100 !
b10100 0
b10100 ]
#46
b11000 .
b11000 U
b11000 [
b11000 /
b11000 T
b11000 \
b11000 ^
#47
b10 4
b10 H
b10 R
b10 7
b10 Q
b10 f
b0 d
b11 b
b11 _
b1110 1
b1110 J
b1110000000110000000000000010 #
b1110000000110000000000000010 %
#48
b1100 ;
b1100 G
b1100 Y
b11000000 =
b11000000 I
b11000000 X
b110000 :
b110000 Z
b110000 a
b11 A
b10 D
b11000000 @
b1100 ?
b0 >
b10 C
1*
0"
#49
b0 :
b0 Z
b0 a
b0 ;
b0 G
b0 Y
b1100000 5
b1100000 O
b1100000 P
b10100000 =
b10100000 I
b10100000 X
b11000010 A
b0 D
b11110000 >
b0 ?
b110000 @
b110 B
b1100000 +
b1100000 N
b1100000 e
b1100000 g
b101 ,
b101 W
b101 c
b100100 -
b100100 S
b100100 `
#50
b1 :
b1 Z
b1 a
b10000000 ;
b10000000 G
b10000000 Y
b10100010 A
b101000 @
b10000000 ?
b11101000 >
b10100000 8
b10100000 M
b10100000 h
b0 B
#51
b1000000 B
b10100010 E
#52
1"
#53
b11000 !
b11000 0
b11000 ]
b1 l
#54
b11100 .
b11100 U
b11100 [
b11100 /
b11100 T
b11100 \
b11100 ^
#55
b0 4
b0 H
b0 R
b0 7
b0 Q
b0 f
b1 d
b1 b
b1 _
b10001 1
b10001 J
b10001000000010000000100000000 #
b10001000000010000000100000000 %
#56
b100100 .
b100100 U
b100100 [
1&
b101 =
b101 I
b101 X
b10100010 :
b10100010 Z
b10100010 a
1)
b10100010 ;
b10100010 G
b10100010 Y
b10100000 4
b10100000 H
b10100000 R
b10100000 5
b10100000 O
b10100000 P
b10100000 A
b10100000 >
b10100000 ?
b10100000 @
b0 C
0*
b10 9
b10 L
b10 V
b1 <
b1 F
b1 K
02
13
0(
0"
#57
b11 =
b11 I
b11 X
b100000 .
b100000 U
b100000 [
b10100101 A
b101 @
b0 ?
b0 >
b10100000 C
b0 B
b101 +
b101 N
b101 e
b101 g
b11 ,
b11 W
b11 c
b100000 -
b100000 S
b100000 `
#58
b11111011 4
b11111011 H
b11111011 R
b11111011 5
b11111011 O
b11111011 P
b10100011 A
b0 >
b0 ?
b11 @
b11111011 8
b11111011 M
b11111011 h
b100000 B
#59
b11111011 A
b11 D
b1100000 @
b0 ?
b0 >
b11111011 C
#60
b11111110 :
b11111110 Z
b11111110 a
b11111110 ;
b11111110 G
b11111110 Y
b1110001 B
b11111110 E
1"
#61
b100000 !
b100000 0
b100000 ]
#62
b100100 /
b100100 T
b100100 \
b100100 ^
#63
b10 7
b10 Q
b10 f
b0 b
b1000 _
b111 1
b111 J
b111000010000000000100000010 #
b111000010000000000100000010 %
#64
b100100 .
b100100 U
b100100 [
0&
0)
b1 9
b1 L
b1 V
0"
#65
b1100000 +
b1100000 N
b1100000 e
b1100000 g
b1000100 -
b1000100 S
b1000100 `
#66
b10100000 4
b10100000 H
b10100000 R
b10100000 5
b10100000 O
b10100000 P
b10100000 8
b10100000 M
b10100000 h
#67
b10100011 A
b0 D
b0 >
b0 ?
b11 @
b10100000 C
#68
b10100011 :
b10100011 Z
b10100011 a
b10100011 ;
b10100011 G
b10100011 Y
b1100000 B
b10100011 E
1"
#69
b100100 !
b100100 0
b100100 ]
#70
b101000 .
b101000 U
b101000 [
b101000 /
b101000 T
b101000 \
b101000 ^
#71
b0 7
b0 Q
b0 f
b0 d
b11 b
b11 _
b110 1
b110 J
b110000000110000000000000000 #
b110000000110000000000000000 %
#72
b1000100 .
b1000100 U
b1000100 [
b10100000 :
b10100000 Z
b10100000 a
b1100000 4
b1100000 H
b1100000 R
1&
b10100000 ;
b10100000 G
b10100000 Y
b1100000 5
b1100000 O
b1100000 P
b0 9
b0 L
b0 V
16
b0 <
b0 F
b0 K
03
0"
#73
b1100000 :
b1100000 Z
b1100000 a
b101 4
b101 H
b101 R
b1100000 ;
b1100000 G
b1100000 Y
b101 5
b101 O
b101 P
b101 =
b101 I
b101 X
b110100 .
b110100 U
b110100 [
b1100011 A
b11 @
b0 ?
b0 >
b1100000 C
b101 +
b101 N
b101 e
b101 g
b101 ,
b101 W
b101 c
b110100 -
b110100 S
b110100 `
#74
b101 :
b101 Z
b101 a
b101 ;
b101 G
b101 Y
b101 D
b101 C
b101 A
b0 >
b10100000 ?
b101000 @
b11111011 8
b11111011 M
b11111011 h
#75
b11001 B
b1010 E
#76
1"
#77
b110100 !
b110100 0
b110100 ]
#78
b111000 /
b111000 T
b111000 \
b111000 ^
#79
b1 7
b1 Q
b1 f
b11 d
b100 b
b100 _
b11 1
b11 J
b11000001000000001100000001 #
b11000001000000001100000001 %
#80
b111000 .
b111000 U
b111000 [
b1010 :
b1010 Z
b1010 a
b11111011 4
b11111011 H
b11111011 R
0&
b1010 ;
b1010 G
b1010 Y
b11111011 5
b11111011 O
b11111011 P
06
b1 <
b1 F
b1 K
13
1(
0"
#81
b1 =
b1 I
b1 X
b11111111 A
b1 D
b10100000 @
b0 ?
b0 >
b11111011 C
b11 +
b11 N
b11 e
b11 g
b1 ,
b1 W
b1 c
b1001000 -
b1001000 S
b1001000 `
#82
b11111101 4
b11111101 H
b11111101 R
b11111101 5
b11111101 O
b11111101 P
b11111011 A
b0 >
b0 ?
b100000 @
b11111101 8
b11111101 M
b11111101 h
b11011 B
#83
b11111101 A
b1000 @
b0 ?
b0 >
b11111101 C
b1111011 B
#84
b11111110 :
b11111110 Z
b11111110 a
b11111110 ;
b11111110 G
b11111110 Y
b1111101 B
b11111110 E
1"
#85
b11111110 m
b111000 !
b111000 0
b111000 ]
#86
b111100 .
b111100 U
b111100 [
b111100 /
b111100 T
b111100 \
b111100 ^
#87
b1110101 7
b1110101 Q
b101 f
b0 d
b0 b
b0 _
b0 1
b0 J
b1110101 #
b1110101 %
#88
b11111101 :
b11111101 Z
b11111101 a
b11111101 ;
b11111101 G
b11111101 Y
b1110101 4
b1110101 H
b1110101 R
b11 5
b11 O
b11 P
b0 <
b0 F
b0 K
12
03
0"
#89
b1110101 :
b1110101 Z
b1110101 a
b1110101 ;
b1110101 G
b1110101 Y
b0 5
b0 O
b0 P
b101 =
b101 I
b101 X
b1110101 A
b0 >
b0 ?
b1000 @
b1110101 C
b0 +
b0 N
b0 e
b0 g
b101 ,
b101 W
b101 c
b111100 -
b111100 S
b111100 `
#90
b101 D
b101000 @
b0 ?
b0 >
b0 8
b0 M
b0 h
#91
b1001001 B
b1111010 E
#92
1"
#93
b111100 !
b111100 0
b111100 ]
b1110101 i
#94
b1000000 .
b1000000 U
b1000000 [
b1000000 /
b1000000 T
b1000000 \
b1000000 ^
#95
b10010010 4
b10010010 H
b10010010 R
b10010010 7
b10010010 Q
b10 f
b1 b
b1 _
b1110101 =
b1110101 I
b1110101 X
b10000000010010010 #
b10000000010010010 %
b1110101 ,
b1110101 W
b1110101 c
#96
b10010010 :
b10010010 Z
b10010010 a
b10010010 ;
b10010010 G
b10010010 Y
b11110111 A
b10010010 C
b10000 D
b0 >
b0 ?
b1011101 @
0"
#97
b1100000 5
b1100000 O
b1100000 P
b111010 B
b1100000 +
b1100000 N
b1100000 e
b1100000 g
b1000100 -
b1000100 S
b1000100 `
b111 E
#98
b10100000 8
b10100000 M
b10100000 h
#100
1"
#101
b10010010 j
b1000000 !
b1000000 0
b1000000 ]
#102
b1000100 .
b1000100 U
b1000100 [
b1000100 /
b1000100 T
b1000100 \
b1000100 ^
#103
b0 4
b0 H
b0 R
b0 7
b0 Q
b0 f
b1 d
b101 b
b101 _
b100 1
b100 J
b100000001010000000100000000 #
b100000001010000000100000000 %
#104
b0 :
b0 Z
b0 a
b0 ;
b0 G
b0 Y
b1100000 4
b1100000 H
b1100000 R
b1110101 A
b0 D
b1110101 @
b1110101 ?
b1110101 >
b0 C
b10 <
b10 F
b10 K
02
0"
#105
b1100000 :
b1100000 Z
b1100000 a
b1110101 4
b1110101 H
b1110101 R
b1100000 ;
b1100000 G
b1100000 Y
b1110101 5
b1110101 O
b1110101 P
b10010010 =
b10010010 I
b10010010 X
b1100000 D
b0 >
b0 ?
b1110101 @
b1100000 C
b100000 B
b1110101 +
b1110101 N
b1110101 e
b1110101 g
b10010010 ,
b10010010 W
b10010010 c
b1011000 -
b1011000 S
b1011000 `
#106
b10000 :
b10000 Z
b10000 a
b10000 ;
b10000 G
b10000 Y
b1110101 C
b11110111 A
b10000 D
b10010100 @
b0 ?
b11111111 >
b10001011 8
b10001011 M
b10001011 h
#107
b111010 B
#108
1"
#109
b1000100 !
b1000100 0
b1000100 ]
b10000 n
#110
b1001000 .
b1001000 U
b1001000 [
b1001000 /
b1001000 T
b1001000 \
b1001000 ^
#111
b10 7
b10 Q
b10 f
b101 d
b110 b
b110 _
b101 1
b101 J
b101000001100000010100000010 #
b101000001100000010100000010 %
#112
b11110111 :
b11110111 Z
b11110111 a
b11110111 ;
b11110111 G
b11110111 Y
b11 <
b11 F
b11 K
0"
#113
b1100000 4
b1100000 H
b1100000 R
b1100000 5
b1100000 O
b1100000 P
b10000 =
b10000 I
b10000 X
b1100000 +
b1100000 N
b1100000 e
b1100000 g
b10000 ,
b10000 W
b10000 c
b1100000 -
b1100000 S
b1100000 `
#114
b1110000 :
b1110000 Z
b1110000 a
b1110000 ;
b1110000 G
b1110000 Y
b0 D
b1100000 C
b1110000 A
b0 >
b0 ?
b10000 @
b10100000 8
b10100000 M
b10100000 h
#115
b0 B
b1110000 E
#116
1"
#117
b1110000 o
b1001000 !
b1001000 0
b1001000 ]
#118
b1001100 .
b1001100 U
b1001100 [
b1001100 /
b1001100 T
b1001100 \
b1001100 ^
#119
b1 d
b101 b
b101 _
b100 1
b100 J
b100000001010000000100000010 #
b100000001010000000100000010 %
#120
b0 :
b0 Z
b0 a
b0 ;
b0 G
b0 Y
b10 <
b10 F
b10 K
0"
#121
b10010010 =
b10010010 I
b10010010 X
b10010010 ,
b10010010 W
b10010010 c
#122
b11110010 A
b10010010 @
b0 ?
b11111111 >
#123
b1000000 B
b11110010 E
#124
1"
#125
b1001100 !
b1001100 0
b1001100 ]
b0 n
#126
b1010000 .
b1010000 U
b1010000 [
b1010000 /
b1010000 T
b1010000 \
b1010000 ^
#127
bx 7
bx Q
bx f
bx d
bx b
bx _
bx 1
bx J
bx #
bx %
#128
0"
#129
bx1000000 B
bx 4
bx H
bx R
bx 5
bx O
bx P
bx =
bx I
bx X
bx +
bx N
bx e
bx g
bx ,
bx W
bx c
bx -
bx S
bx `
#130
bx :
bx Z
bx a
bx ;
bx G
bx Y
bx C
bx A
bx D
bx >
bx ?
bx @
bx 8
bx M
bx h
#131
x'
bx B
bx E
#132
1"
#133
b1010000 !
b1010000 0
b1010000 ]
#134
b1010100 .
b1010100 U
b1010100 [
b1010100 /
b1010100 T
b1010100 \
b1010100 ^
#136
0"
#140
1"
#141
b1010100 !
b1010100 0
b1010100 ]
#142
b1011000 .
b1011000 U
b1011000 [
b1011000 /
b1011000 T
b1011000 \
b1011000 ^
#144
0"
#148
1"
#149
b1011000 !
b1011000 0
b1011000 ]
#150
b1011100 .
b1011100 U
b1011100 [
b1011100 /
b1011100 T
b1011100 \
b1011100 ^
