Lab06/part3/mycpu1/cpu_wavedata.vcd
$date
	Sun Jun 25 00:14:29 2023
$end
$version
	Icarus Verilog
$end
$timescale
	100ps
$end
$scope module cpu_tb $end
$var wire 1 ! BUSYWAIT $end
$var wire 8 " WRITEDATA [7:0] $end
$var wire 1 # WRITE $end
$var wire 128 $ READINST [127:0] $end
$var wire 8 % READDATA [7:0] $end
$var wire 1 & READ $end
$var wire 32 ' PC [31:0] $end
$var wire 32 ( MEM_WRITEDATA [31:0] $end
$var wire 1 ) MEM_WRITE $end
$var wire 32 * MEM_READATA [31:0] $end
$var wire 1 + MEM_READ $end
$var wire 1 , MEM_BUSYWAIT $end
$var wire 6 - MEM_ADDRESS [5:0] $end
$var wire 32 . INSTRUCTION [31:0] $end
$var wire 1 / IMEM_READ $end
$var wire 1 0 IMEM_BUSYWAIT $end
$var wire 1 1 IBUSYWAIT $end
$var wire 6 2 IADDRESS [5:0] $end
$var wire 1 3 DBUSYWAIT $end
$var wire 8 4 ADDRESS [7:0] $end
$var reg 1 5 CLK $end
$var reg 1 6 RESET $end
$scope module mycpu $end
$var wire 8 7 ADDRESS [7:0] $end
$var wire 1 ! BUSYWAIT $end
$var wire 1 5 CLK $end
$var wire 1 8 PCSELECT $end
$var wire 1 6 RESET $end
$var wire 8 9 WRITEDATA [7:0] $end
$var wire 1 : ZERO $end
$var wire 1 ; WRITEENABLE $end
$var wire 1 # WRITE $end
$var wire 1 < WIRE1 $end
$var wire 1 = REVERSE $end
$var wire 8 > REGOUT2 [7:0] $end
$var wire 8 ? REGOUT1 [7:0] $end
$var wire 8 @ READDATA [7:0] $end
$var wire 1 & READ $end
$var wire 32 A PC_TARGET [31:0] $end
$var wire 32 B PC_NEXT [31:0] $end
$var wire 32 C PC_4 [31:0] $end
$var wire 32 D PC [31:0] $end
$var wire 8 E OPCODE [7:0] $end
$var wire 1 F MUXSELECT3 $end
$var wire 1 G MUXSELECT2 $end
$var wire 1 H MUXSELECT1 $end
$var wire 8 I MUXOUT2 [7:0] $end
$var wire 8 J MUXOUT1 [7:0] $end
$var wire 1 K JUMP $end
$var wire 32 L INSTRUCTION [31:0] $end
$var wire 8 M IN [7:0] $end
$var wire 8 N IMMEDIATE [7:0] $end
$var wire 1 O HOLD $end
$var wire 8 P COMPOUT [7:0] $end
$var wire 2 Q BRANCH [1:0] $end
$var wire 8 R ALURESULT [7:0] $end
$var wire 8 S ALUOUT [7:0] $end
$var wire 3 T ALUOP [2:0] $end
$var wire 8 U ALUIN1 [7:0] $end
$scope module Alu $end
$var wire 8 V sra_result [7:0] $end
$var wire 8 W sl_result [7:0] $end
$var wire 8 X ror_result [7:0] $end
$var wire 8 Y or_result [7:0] $end
$var wire 8 Z mult_result [7:0] $end
$var wire 8 [ forward_result [7:0] $end
$var wire 8 \ and_result [7:0] $end
$var wire 8 ] add_result [7:0] $end
$var wire 1 : ZERO $end
$var wire 3 ^ SELECT [0:2] $end
$var wire 8 _ RESULT [7:0] $end
$var wire 8 ` DATA2 [7:0] $end
$var wire 8 a DATA1 [7:0] $end
$upscope $end
$scope module Control_Unit $end
$var wire 1 ! BUSYWAIT $end
$var wire 1 O HOLD $end
$var wire 8 b OPCODE [7:0] $end
$var reg 3 c ALUOP [2:0] $end
$var reg 2 d BRANCH [1:0] $end
$var reg 1 H COMP_SELECT $end
$var reg 1 G IMMEDIATE_SELECT $end
$var reg 1 K JUMP $end
$var reg 1 F MEM_SELECT $end
$var reg 1 & READ $end
$var reg 1 = REVERSE $end
$var reg 1 # WRITE $end
$var reg 1 ; WRITEENABLE $end
$upscope $end
$scope module MUX3 $end
$var wire 1 F SELECT $end
$var wire 8 e DATA2 [7:0] $end
$var wire 8 f DATA1 [7:0] $end
$var reg 8 g OUTPUT [7:0] $end
$upscope $end
$scope module Mux1 $end
$var wire 1 H SELECT $end
$var wire 8 h DATA2 [7:0] $end
$var wire 8 i DATA1 [7:0] $end
$var reg 8 j OUTPUT [7:0] $end
$upscope $end
$scope module Mux2 $end
$var wire 8 k DATA1 [7:0] $end
$var wire 8 l DATA2 [7:0] $end
$var wire 1 G SELECT $end
$var reg 8 m OUTPUT [7:0] $end
$upscope $end
$scope module Mux3 $end
$var wire 1 8 SELECT $end
$var wire 32 n DATA2 [31:0] $end
$var wire 32 o DATA1 [31:0] $end
$var reg 32 p OUTPUT [31:0] $end
$upscope $end
$scope module MuxBranch $end
$var wire 1 : DATA1 $end
$var wire 2 q SELECT [1:0] $end
$var reg 1 < OUTPUT $end
$upscope $end
$scope module Pc $end
$var wire 1 5 CLK $end
$var wire 1 O HOLD $end
$var wire 32 r PC_TO [31:0] $end
$var wire 1 6 RESET $end
$var wire 32 s PC_NEXT [31:0] $end
$var reg 32 t PC [31:0] $end
$var reg 32 u PC_DO [31:0] $end
$var reg 32 v PC_HOLD [31:0] $end
$upscope $end
$scope module Pc_Adder $end
$var wire 32 w DATA1 [31:0] $end
$var wire 8 x DATA2 [7:0] $end
$var wire 32 y RESULT [31:0] $end
$upscope $end
$scope module Reg_File $end
$var wire 1 5 CLK $end
$var wire 8 z IN [7:0] $end
$var wire 3 { INADDRESS [2:0] $end
$var wire 8 | OUT1 [7:0] $end
$var wire 3 } OUT1ADDRESS [2:0] $end
$var wire 8 ~ OUT2 [7:0] $end
$var wire 3 !" OUT2ADDRESS [2:0] $end
$var wire 1 6 RESET $end
$var wire 1 ; WRITE $end
$upscope $end
$scope module Revers1 $end
$var wire 8 "" DATA [7:0] $end
$var wire 1 = SELECT $end
$var reg 8 #" OUTPUT [7:0] $end
$upscope $end
$scope module Revers2 $end
$var wire 8 $" DATA [7:0] $end
$var wire 1 = SELECT $end
$var reg 8 %" OUTPUT [7:0] $end
$upscope $end
$scope module Two_Com $end
$var wire 8 &" DATA [7:0] $end
$var wire 8 '" OUT [7:0] $end
$upscope $end
$upscope $end
$scope module mydata_memory $end
$var wire 1 5 clock $end
$var wire 1 6 reset $end
$var wire 32 (" writedata [31:0] $end
$var wire 1 ) write $end
$var wire 1 + read $end
$var wire 6 )" address [5:0] $end
$var reg 1 , busywait $end
$var reg 1 *" readaccess $end
$var reg 32 +" readdata [31:0] $end
$var reg 1 ," writeaccess $end
$scope begin $ivl_for_loop5 $end
$var integer 32 -" i [31:0] $end
$upscope $end
$upscope $end
$scope module mydcashe $end
$var wire 8 ." address [7:0] $end
$var wire 1 5 clock $end
$var wire 1 , mem_busywait $end
$var wire 32 /" mem_readdata [31:0] $end
$var wire 1 & read $end
$var wire 1 6 reset $end
$var wire 1 # write $end
$var wire 8 0" writedata [7:0] $end
$var wire 2 1" index [1:0] $end
$var parameter 3 2" IDLE $end
$var parameter 3 3" MEM_READ $end
$var parameter 3 4" MEM_WRITE $end
$var reg 1 3 busywait $end
$var reg 37 5" cache_entry [36:0] $end
$var reg 8 6" dataword [7:0] $end
$var reg 1 7" dirty $end
$var reg 1 8" hit $end
$var reg 6 9" mem_address [5:0] $end
$var reg 1 + mem_read $end
$var reg 1 ) mem_write $end
$var reg 32 :" mem_writedata [31:0] $end
$var reg 3 ;" next_state [2:0] $end
$var reg 8 <" readdata [7:0] $end
$var reg 3 =" state [2:0] $end
$var reg 3 >" tag [2:0] $end
$var reg 1 ?" valid $end
$scope begin $ivl_for_loop6 $end
$var integer 32 @" i [31:0] $end
$upscope $end
$upscope $end
$scope module myicache $end
$var wire 10 A" address [9:0] $end
$var wire 1 5 clock $end
$var wire 1 6 reset $end
$var wire 128 B" mem_readdata [127:0] $end
$var wire 1 0 mem_busywait $end
$var parameter 3 C" IDLE $end
$var parameter 3 D" MEM_READ $end
$var reg 3 E" atag [2:0] $end
$var reg 1 1 busywait $end
$var reg 132 F" cache_entry [131:0] $end
$var reg 32 G" dataword [31:0] $end
$var reg 1 H" flag $end
$var reg 1 I" hit $end
$var reg 3 J" index [2:0] $end
$var reg 6 K" mem_address [5:0] $end
$var reg 1 / mem_read $end
$var reg 3 L" next_state [2:0] $end
$var reg 32 M" readdata [31:0] $end
$var reg 3 N" state [2:0] $end
$var reg 3 O" tag [2:0] $end
$var reg 1 P" valid $end
$scope begin $ivl_for_loop7 $end
$var integer 32 Q" i [31:0] $end
$upscope $end
$upscope $end
$scope module myinstruction_memory $end
$var wire 6 R" address [5:0] $end
$var wire 1 5 clock $end
$var wire 1 / read $end
$var reg 1 0 busywait $end
$var reg 1 S" readaccess $end
$var reg 128 T" readinst [127:0] $end
$upscope $end
$upscope $end
$scope module cpu_tb $end
$scope module mycpu $end
$scope module Reg_File $end
$var reg 8 U" \registers[0] [7:0] $end
$upscope $end
$upscope $end
$upscope $end
$scope module cpu_tb $end
$scope module mycpu $end
$scope module Reg_File $end
$var reg 8 V" \registers[1] [7:0] $end
$upscope $end
$upscope $end
$upscope $end
$scope module cpu_tb $end
$scope module mycpu $end
$scope module Reg_File $end
$var reg 8 W" \registers[2] [7:0] $end
$upscope $end
$upscope $end
$upscope $end
$scope module cpu_tb $end
$scope module mycpu $end
$scope module Reg_File $end
$var reg 8 X" \registers[3] [7:0] $end
$upscope $end
$upscope $end
$upscope $end
$scope module cpu_tb $end
$scope module mycpu $end
$scope module Reg_File $end
$var reg 8 Y" \registers[4] [7:0] $end
$upscope $end
$upscope $end
$upscope $end
$scope module cpu_tb $end
$scope module mycpu $end
$scope module Reg_File $end
$var reg 8 Z" \registers[5] [7:0] $end
$upscope $end
$upscope $end
$upscope $end
$scope module cpu_tb $end
$scope module mycpu $end
$scope module Reg_File $end
$var reg 8 [" \registers[6] [7:0] $end
$upscope $end
$upscope $end
$upscope $end
$scope module cpu_tb $end
$scope module mycpu $end
$scope module Reg_File $end
$var reg 8 \" \registers[7] [7:0] $end
$upscope $end
$upscope $end
$upscope $end
$enddefinitions $end
$comment Show the parameter values. $end
$dumpall
b1 D"
b0 C"
b10 4"
b1 3"
b0 2"
$end
#0
$dumpvars
bx \"
bx ["
bx Z"
bx Y"
bx X"
bx W"
bx V"
bx U"
bx T"
0S"
b0xxxxx R"
b1000 Q"
xP"
bx O"
b0 N"
bx M"
b0 L"
b0xxxxx K"
bx J"
xI"
xH"
bx G"
bx F"
bx E"
bx B"
bx A"
b1000 @"
x?"
bx >"
b0 ="
bx <"
b0 ;"
bx :"
b0xxxxx 9"
x8"
x7"
bx 6"
bx 5"
bx 1"
bx 0"
bx /"
bx ."
b100000000 -"
0,"
bx +"
0*"
b0xxxxx )"
bx ("
bx '"
bx &"
bx %"
bx $"
bx #"
bx ""
bx !"
bx ~
bx }
bx |
bx {
bx z
bx y
bx x
bx w
bx v
bx u
bx t
bx s
bx r
bx q
bx p
bx o
bx n
bx m
bx l
bx k
bx j
bx i
bx h
bx g
bx f
bx e
bx d
bx c
bx b
bx a
bx `
bx _
bx ^
bx ]
bx \
bx [
bx Z
bx Y
bx X
bx W
bx V
bx U
bx T
bx S
bx R
bx Q
bx P
0O
bx N
bx M
bx L
xK
bx J
bx I
xH
xG
xF
bx E
bx D
bx C
bx B
bx A
bx @
bx ?
bx >
x=
x<
x;
x:
bx 9
x8
bx 7
16
05
bx 4
03
b0xxxxx 2
01
00
0/
bx .
b0xxxxx -
0,
0+
bx *
0)
bx (
bx '
x&
bx %
bx $
x#
bx "
0!
$end
#9
08"
#40
15
#50
0H"
b0 E"
b0 J"
b0 A"
b0 '
b0 D
b0 t
b0 \"
b0 ["
b0 Z"
b0 Y"
b0 X"
b0 W"
b0 V"
b0 U"
06
#60
b100 u
b100 B
b100 p
b100 r
1H"
b0 F"
b100 C
b100 o
b100 s
b100 w
#69
b1 L"
0I"
b0 O"
0P"
#70
b0 G"
#80
05
#120
0H"
bx A"
bx '
bx D
bx t
b0 v
1O
1!
1S"
10
11
b0 2
b0 K"
b0 R"
1/
b1 N"
15
#130
bx u
bx B
bx p
bx r
1H"
bx C
bx o
bx s
bx w
#160
05
#200
15
#240
05
#280
15
#320
05
#360
15
#400
05
#440
15
#480
05
#520
15
bx00000001 $
bx00000001 B"
bx00000001 T"
#560
05
#600
15
#640
05
#680
15
#720
05
#760
15
#800
05
#840
15
#880
05
#920
15
bx0000000000000001 $
bx0000000000000001 B"
bx0000000000000001 T"
#960
05
#1000
15
#1040
05
#1080
15
#1120
05
#1160
15
#1200
05
#1240
15
#1280
05
#1320
15
bx000000000000000000000001 $
bx000000000000000000000001 B"
bx000000000000000000000001 T"
#1360
05
#1400
15
#1440
05
#1480
15
#1520
05
#1560
15
#1600
05
#1640
15
#1680
05
#1720
15
bx00000000000000000000000000000001 $
bx00000000000000000000000000000001 B"
bx00000000000000000000000000000001 T"
#1760
05
#1800
15
#1840
05
#1880
15
#1920
05
#1960
15
#2000
05
#2040
15
#2080
05
#2120
15
bx0000100000000000000000000000000000000001 $
bx0000100000000000000000000000000000000001 B"
bx0000100000000000000000000000000000000001 T"
#2160
05
#2200
15
#2240
05
#2280
15
#2320
05
#2360
15
#2400
05
#2440
15
#2480
05
#2520
15
bx000000000000100000000000000000000000000000000001 $
bx000000000000100000000000000000000000000000000001 B"
bx000000000000100000000000000000000000000000000001 T"
#2560
05
#2600
15
#2640
05
#2680
15
#2720
05
#2760
15
#2800
05
#2840
15
#2880
05
#2920
15
bx00000001000000000000100000000000000000000000000000000001 $
bx00000001000000000000100000000000000000000000000000000001 B"
bx00000001000000000000100000000000000000000000000000000001 T"
#2960
05
#3000
15
#3040
05
#3080
15
#3120
05
#3160
15
#3200
05
#3240
15
#3280
05
#3320
15
bx0000000000000001000000000000100000000000000000000000000000000001 $
bx0000000000000001000000000000100000000000000000000000000000000001 B"
bx0000000000000001000000000000100000000000000000000000000000000001 T"
#3360
05
#3400
15
#3440
05
#3480
15
#3520
05
#3560
15
#3600
05
#3640
15
#3680
05
#3720
15
bx000000000000000000000001000000000000100000000000000000000000000000000001 $
bx000000000000000000000001000000000000100000000000000000000000000000000001 B"
bx000000000000000000000001000000000000100000000000000000000000000000000001 T"
#3760
05
#3800
15
#3840
05
#3880
15
#3920
05
#3960
15
#4000
05
#4040
15
#4080
05
#4120
15
bx00000001000000000000000000000001000000000000100000000000000000000000000000000001 $
bx00000001000000000000000000000001000000000000100000000000000000000000000000000001 B"
bx00000001000000000000000000000001000000000000100000000000000000000000000000000001 T"
#4160
05
#4200
15
#4240
05
#4280
15
#4320
05
#4360
15
#4400
05
#4440
15
#4480
05
#4520
15
bx0000000000000001000000000000000000000001000000000000100000000000000000000000000000000001 $
bx0000000000000001000000000000000000000001000000000000100000000000000000000000000000000001 B"
bx0000000000000001000000000000000000000001000000000000100000000000000000000000000000000001 T"
#4560
05
#4600
15
#4640
05
#4680
15
#4720
05
#4760
15
#4800
05
#4840
15
#4880
05
#4920
15
bx000010100000000000000001000000000000000000000001000000000000100000000000000000000000000000000001 $
bx000010100000000000000001000000000000000000000001000000000000100000000000000000000000000000000001 B"
bx000010100000000000000001000000000000000000000001000000000000100000000000000000000000000000000001 T"
#4960
05
#5000
15
#5040
05
#5080
15
#5120
05
#5160
15
#5200
05
#5240
15
#5280
05
#5320
15
bx00000000000010100000000000000001000000000000000000000001000000000000100000000000000000000000000000000001 $
bx00000000000010100000000000000001000000000000000000000001000000000000100000000000000000000000000000000001 B"
bx00000000000010100000000000000001000000000000000000000001000000000000100000000000000000000000000000000001 T"
#5360
05
#5400
15
#5440
05
#5480
15
#5520
05
#5560
15
#5600
05
#5640
15
#5680
05
#5720
15
bx0000000000000000000010100000000000000001000000000000000000000001000000000000100000000000000000000000000000000001 $
bx0000000000000000000010100000000000000001000000000000000000000001000000000000100000000000000000000000000000000001 B"
bx0000000000000000000010100000000000000001000000000000000000000001000000000000100000000000000000000000000000000001 T"
#5760
05
#5800
15
#5840
05
#5880
15
#5920
05
#5960
15
#6000
05
#6040
15
#6080
05
#6120
15
bx000000100000000000000000000010100000000000000001000000000000000000000001000000000000100000000000000000000000000000000001 $
bx000000100000000000000000000010100000000000000001000000000000000000000001000000000000100000000000000000000000000000000001 B"
bx000000100000000000000000000010100000000000000001000000000000000000000001000000000000100000000000000000000000000000000001 T"
#6160
05
#6200
15
#6240
05
#6280
15
#6320
05
#6360
15
#6400
05
#6440
15
#6480
05
#6520
b0 L"
15
0S"
00
b1000000000100000000000000000000010100000000000000001000000000000000000000001000000000000100000000000000000000000000000000001 $
b1000000000100000000000000000000010100000000000000001000000000000000000000001000000000000100000000000000000000000000000000001 B"
b1000000000100000000000000000000010100000000000000001000000000000000000000001000000000000100000000000000000000000000000000001 T"
#6560
05
#6600
b1 L"
b0 u
0O
0!
01
b0xxxxx 2
b0xxxxx K"
b0xxxxx R"
0/
b0 N"
15
#6610
0H"
b0 A"
b0 '
b0 D
b0 t
#6620
b100 u
b100 B
b100 p
b100 r
1H"
b100000001000000000100000000000000000000010100000000000000001000000000000000000000001000000000000100000000000000000000000000000000001 F"
b100 C
b100 o
b100 s
b100 w
#6629
b0 L"
b0 x
b0 !"
b0 }
b0 {
b0 E
b0 b
b0 N
b0 l
b0 .
b0 L
b0 M"
1I"
1P"
#6630
b1 !"
b1 N
b1 l
b1 .
b1 L
b1 M"
b1 G"
#6639
08
0<
b1 I
b1 `
b1 m
0F
0#
0&
0=
b0 Q
b0 d
b0 q
0K
b0 T
b0 ^
b0 c
1G
0H
1;
#6640
05
#6649
b0 1"
b1 M
b1 g
b1 z
b1 4
b1 7
b1 ."
b1 R
b1 f
b1 %"
b1 S
b1 _
b1 $"
b0 J
b0 j
b0 k
b0 U
b0 a
b0 #"
bx1 Y
b0x \
bx0 W
b1 [
b100 A
b100 n
b100 y
b0 >
b0 i
b0 ~
b0 &"
b0 "
b0 9
b0 0"
b0 ?
b0 |
b0 ""
#6659
b0 5"
b1 Y
b0 \
b0 V
b0 W
b0 X
b0 P
b0 h
b0 '"
b0 Z
#6668
b0 >"
07"
0?"
#6669
0:
b0 6"
b1 ]
#6680
15
#6690
0H"
b100 A"
b100 '
b100 D
b100 t
b1 U"
#6700
b1000 u
b1000 B
b1000 p
b1000 r
1H"
b1000 C
b1000 o
b1000 s
b1000 w
#6710
b1000 I
b1000 `
b1000 m
b1 x
b0 !"
b1 {
b1000 N
b1000 l
b10000000000001000 .
b10000000000001000 L
b10000000000001000 M"
b1 U
b1 a
b1 #"
b10000000000001000 G"
b1 "
b1 9
b1 0"
b1 ?
b1 |
b1 ""
#6720
b10 1"
b1000 M
b1000 g
b1000 z
b1000 4
b1000 7
b1000 ."
b1000 R
b1000 f
b1000 %"
b1000 S
b1000 _
b1000 $"
b1001 Y
b1000 [
b1 X
b0 W
b0 V
05
#6730
b1 J
b1 j
b1 k
b1100 A
b1100 n
b1100 y
b1 >
b1 i
b1 ~
b1 &"
b1000 Z
b1001 ]
#6740
b11111111 P
b11111111 h
b11111111 '"
#6760
15
#6770
0H"
b1000 A"
b1000 '
b1000 D
b1000 t
b1000 V"
#6780
b1100 u
b1100 B
b1100 p
b1100 r
1H"
b1100 C
b1100 o
b1100 s
b1100 w
#6790
b0 I
b0 `
b0 m
b0 x
b1 }
b0 {
b1010 E
b1010 b
b0 N
b0 l
b1010000000000000000100000000 .
b1010000000000000000100000000 L
b1010000000000000000100000000 M"
b1010000000000000000100000000 G"
#6800
b0 1"
b0 M
b0 g
b0 z
b0 4
b0 7
b0 ."
b0 R
b0 f
b0 %"
b1 ;"
b1 I
b1 `
b1 m
b0 S
b0 _
b0 $"
b1 Y
b1 V
b1 W
1#
0G
0;
b0 [
05
#6810
b1 M
b1 g
b1 z
b1 4
b1 7
b1 ."
b1 R
b1 f
b1 %"
b1 S
b1 _
b1 $"
b1000 U
b1000 a
b1000 #"
b1 \
b10000000 X
b10 W
b0 V
b1 [
b1 Z
b1000 "
b1000 9
b1000 0"
b1000 ?
b1000 |
b1000 ""
#6820
b1001 Y
b0 \
b100 V
b10000 W
b100 X
#6830
b1000 Z
#6840
0H"
bx A"
bx '
bx D
bx t
b1000 v
1O
1!
1*"
1,
13
b0 -
b0 )"
b0 9"
1+
b1 ;"
b1 ="
15
#6850
bx u
bx B
bx p
bx r
1H"
bx C
bx o
bx s
bx w
#6870
bx A
bx n
bx y
#6880
05
#6920
15
#6960
05
#7000
15
#7040
05
#7080
15
#7120
05
#7160
15
#7200
05
#7240
15
bx00000000 *
bx00000000 +"
bx00000000 /"
#7280
05
#7320
15
#7360
05
#7400
15
#7440
05
#7480
15
#7520
05
#7560
15
#7600
05
#7640
15
bx0000000000000000 *
bx0000000000000000 +"
bx0000000000000000 /"
#7680
05
#7720
15
#7760
05
#7800
15
#7840
05
#7880
15
#7920
05
#7960
15
#8000
05
#8040
15
bx000000000000000000000000 *
bx000000000000000000000000 +"
bx000000000000000000000000 /"
#8080
05
#8120
15
#8160
05
#8200
15
#8240
05
#8280
15
#8320
05
#8360
15
#8400
05
#8440
b1000 u
0O
0!
03
b0xxxxx -
b0xxxxx )"
b0xxxxx 9"
0+
b0 ="
b1 ;"
15
0*"
0,
b0 *
b0 +"
b0 /"
#8450
0H"
b1000 A"
b1000 '
b1000 D
b1000 t
#8460
b1100 u
b1100 B
b1100 p
b1100 r
1H"
b1000000000000000000000000000000000000 5"
b1100 C
b1100 o
b1100 s
b1100 w
#8469
b0 ;"
18"
1?"
#8480
b1100 A
b1100 n
b1100 y
05
#8520
15
#8530
0H"
b1100 A"
b1100 '
b1100 D
b1100 t
#8540
b10000 u
b10000 B
b10000 p
b10000 r
1H"
b1100000000000000000000000100000000000 5"
b10000 C
b10000 o
b10000 s
b10000 w
#8549
b10 ;"
08"
17"
#8550
b10 x
b0 }
b10 {
b1000 E
b1000 b
b1000000000100000000000000000 .
b1000000000100000000000000000 L
b1000000000100000000000000000 M"
b1000000000100000000000000000 G"
b1000 6"
#8560
bx M
bx g
bx z
1F
0#
1&
1;
05
#8569
b1000 M
b1000 g
b1000 z
b0 ;"
b1000 %
b1000 @
b1000 e
b1000 <"
18"
#8570
b1 U
b1 a
b1 #"
b11000 A
b11000 n
b11000 y
b1 "
b1 9
b1 0"
b1 ?
b1 |
b1 ""
#8580
b1 Y
b1 \
b10000000 X
b10 W
b0 V
#8590
b1 Z
b10 ]
#8600
15
#8610
0H"
b1 J"
b10000 A"
b10000 '
b10000 D
b10000 t
b1000 W"
#8620
b10100 u
b10100 B
b10100 p
b10100 r
1H"
b0 F"
b10100 C
b10100 o
b10100 s
b10100 w
#8629
b1 L"
0I"
0P"
#8630
b0 G"
#8640
b11100 A
b11100 n
b11100 y
05
#8680
0H"
bx A"
bx '
bx D
bx t
b10000 v
1O
1!
1S"
10
11
b1 2
b1 K"
b1 R"
1/
b1 N"
15
#8690
bx u
bx B
bx p
bx r
1H"
bx C
bx o
bx s
bx w
b1000 W"
#8710
bx A
bx n
bx y
#8720
05
#8760
15
#8770
b1000 W"
#8800
05
#8840
15
#8850
b1000 W"
#8880
05
#8920
15
#8930
b1000 W"
#8960
05
#9000
15
#9010
b1000 W"
#9040
05
#9080
15
b1000000000100000000000000000000010100000000000000001000000000000000000000001000000000000100000000000000000000000000000000000 $
b1000000000100000000000000000000010100000000000000001000000000000000000000001000000000000100000000000000000000000000000000000 B"
b1000000000100000000000000000000010100000000000000001000000000000000000000001000000000000100000000000000000000000000000000000 T"
#9090
b1000 W"
#9120
05
#9160
15
#9170
b1000 W"
#9200
05
#9240
15
#9250
b1000 W"
#9280
05
#9320
15
#9330
b1000 W"
#9360
05
#9400
15
#9410
b1000 W"
#9440
05
#9480
15
#9490
b1000 W"
#9520
05
#9560
15
#9570
b1000 W"
#9600
05
#9640
15
#9650
b1000 W"
#9680
05
#9720
15
#9730
b1000 W"
#9760
05
#9800
15
#9810
b1000 W"
#9840
05
#9880
15
#9890
b1000 W"
#9920
05
#9960
15
#9970
b1000 W"
#10000
05
#10040
15
#10050
b1000 W"
#10080
05
#10120
15
#10130
b1000 W"
#10160
05
#10200
15
#10210
b1000 W"
#10240
05
#10280
15
b1000000000100000000000000000000010100000000000000001000000000000000000000001000000000000100000001011000000000000000000000000 $
b1000000000100000000000000000000010100000000000000001000000000000000000000001000000000000100000001011000000000000000000000000 B"
b1000000000100000000000000000000010100000000000000001000000000000000000000001000000000000100000001011000000000000000000000000 T"
#10290
b1000 W"
#10320
05
#10360
15
#10370
b1000 W"
#10400
05
#10440
15
#10450
b1000 W"
#10480
05
#10520
15
#10530
b1000 W"
#10560
05
#10600
15
#10610
b1000 W"
#10640
05
#10680
15
b1000000000100000000000000000000010100000000000000001000000000000000000000001000000000000000000001011000000000000000000000000 $
b1000000000100000000000000000000010100000000000000001000000000000000000000001000000000000000000001011000000000000000000000000 B"
b1000000000100000000000000000000010100000000000000001000000000000000000000001000000000000000000001011000000000000000000000000 T"
#10690
b1000 W"
#10720
05
#10760
15
#10770
b1000 W"
#10800
05
#10840
15
#10850
b1000 W"
#10880
05
#10920
15
#10930
b1000 W"
#10960
05
#11000
15
#11010
b1000 W"
#11040
05
#11080
15
#11090
b1000 W"
#11120
05
#11160
15
#11170
b1000 W"
#11200
05
#11240
15
#11250
b1000 W"
#11280
05
#11320
15
#11330
b1000 W"
#11360
05
#11400
15
#11410
b1000 W"
#11440
05
#11480
15
b1000000000100000000000000000000010100000000000000001000000000000000000000011000000000000000000001011000000000000000000000000 $
b1000000000100000000000000000000010100000000000000001000000000000000000000011000000000000000000001011000000000000000000000000 B"
b1000000000100000000000000000000010100000000000000001000000000000000000000011000000000000000000001011000000000000000000000000 T"
#11490
b1000 W"
#11520
05
#11560
15
#11570
b1000 W"
#11600
05
#11640
15
#11650
b1000 W"
#11680
05
#11720
15
#11730
b1000 W"
#11760
05
#11800
15
#11810
b1000 W"
#11840
05
#11880
15
b1000000000100000000000000000000010100000000000000001000000000000100100000011000000000000000000001011000000000000000000000000 $
b1000000000100000000000000000000010100000000000000001000000000000100100000011000000000000000000001011000000000000000000000000 B"
b1000000000100000000000000000000010100000000000000001000000000000100100000011000000000000000000001011000000000000000000000000 T"
#11890
b1000 W"
#11920
05
#11960
15
#11970
b1000 W"
#12000
05
#12040
15
#12050
b1000 W"
#12080
05
#12120
15
#12130
b1000 W"
#12160
05
#12200
15
#12210
b1000 W"
#12240
05
#12280
15
b1000000000100000000000000000000010100000000000000001001000000000100100000011000000000000000000001011000000000000000000000000 $
b1000000000100000000000000000000010100000000000000001001000000000100100000011000000000000000000001011000000000000000000000000 B"
b1000000000100000000000000000000010100000000000000001001000000000100100000011000000000000000000001011000000000000000000000000 T"
#12290
b1000 W"
#12320
05
#12360
15
#12370
b1000 W"
#12400
05
#12440
15
#12450
b1000 W"
#12480
05
#12520
15
#12530
b1000 W"
#12560
05
#12600
15
#12610
b1000 W"
#12640
05
#12680
15
#12690
b1000 W"
#12720
05
#12760
15
#12770
b1000 W"
#12800
05
#12840
15
#12850
b1000 W"
#12880
05
#12920
15
#12930
b1000 W"
#12960
05
#13000
15
#13010
b1000 W"
#13040
05
#13080
15
#13090
b1000 W"
#13120
05
#13160
15
#13170
b1000 W"
#13200
05
#13240
15
#13250
b1000 W"
#13280
05
#13320
15
#13330
b1000 W"
#13360
05
#13400
15
#13410
b1000 W"
#13440
05
#13480
15
b1000000000100000000000000000000010110000000000000001001000000000100100000011000000000000000000001011000000000000000000000000 $
b1000000000100000000000000000000010110000000000000001001000000000100100000011000000000000000000001011000000000000000000000000 B"
b1000000000100000000000000000000010110000000000000001001000000000100100000011000000000000000000001011000000000000000000000000 T"
#13490
b1000 W"
#13520
05
#13560
15
#13570
b1000 W"
#13600
05
#13640
15
#13650
b1000 W"
#13680
05
#13720
15
#13730
b1000 W"
#13760
05
#13800
15
#13810
b1000 W"
#13840
05
#13880
15
b1000000000100000000000100000000010110000000000000001001000000000100100000011000000000000000000001011000000000000000000000000 $
b1000000000100000000000100000000010110000000000000001001000000000100100000011000000000000000000001011000000000000000000000000 B"
b1000000000100000000000100000000010110000000000000001001000000000100100000011000000000000000000001011000000000000000000000000 T"
#13890
b1000 W"
#13920
05
#13960
15
#13970
b1000 W"
#14000
05
#14040
15
#14050
b1000 W"
#14080
05
#14120
15
#14130
b1000 W"
#14160
05
#14200
15
#14210
b1000 W"
#14240
05
#14280
15
#14290
b1000 W"
#14320
05
#14360
15
#14370
b1000 W"
#14400
05
#14440
15
#14450
b1000 W"
#14480
05
#14520
15
#14530
b1000 W"
#14560
05
#14600
15
#14610
b1000 W"
#14640
05
#14680
15
b1000000001000000000000100000000010110000000000000001001000000000100100000011000000000000000000001011000000000000000000000000 $
b1000000001000000000000100000000010110000000000000001001000000000100100000011000000000000000000001011000000000000000000000000 B"
b1000000001000000000000100000000010110000000000000001001000000000100100000011000000000000000000001011000000000000000000000000 T"
#14690
b1000 W"
#14720
05
#14760
15
#14770
b1000 W"
#14800
05
#14840
15
#14850
b1000 W"
#14880
05
#14920
15
#14930
b1000 W"
#14960
05
#15000
15
#15010
b1000 W"
#15040
05
#15080
b0 L"
15
0S"
00
b1001000001000000000000100000000010110000000000000001001000000000100100000011000000000000000000001011000000000000000000000000 $
b1001000001000000000000100000000010110000000000000001001000000000100100000011000000000000000000001011000000000000000000000000 B"
b1001000001000000000000100000000010110000000000000001001000000000100100000011000000000000000000001011000000000000000000000000 T"
#15090
b1000 W"
#15120
05
#15160
b1 L"
b10000 u
0O
0!
01
b0xxxxx 2
b0xxxxx K"
b0xxxxx R"
0/
b0 N"
15
#15170
0H"
b10000 A"
b10000 '
b10000 D
b10000 t
b1000 W"
#15180
b10100 u
b10100 B
b10100 p
b10100 r
1H"
b100000001001000001000000000000100000000010110000000000000001001000000000100100000011000000000000000000001011000000000000000000000000 F"
b10100 C
b10100 o
b10100 s
b10100 w
#15189
b0 L"
b0 x
b0 {
b0 E
b0 b
b0 .
b0 L
b0 M"
1I"
1P"
