Lab06/part3/mycpu/cpu_wavedata.vcd
$date
	Wed Jun 21 17:19:38 2023
$end
$version
	Icarus Verilog
$end
$timescale
	100ps
$end
$scope module cpu_tb $end
$var wire 1 ! BUSYWAIT $end
$var wire 8 " WRITEDATA [7:0] $end
$var wire 1 # WRITE $end
$var wire 128 $ READINST [127:0] $end
$var wire 8 % READDATA [7:0] $end
$var wire 1 & READ $end
$var wire 32 ' PC [31:0] $end
$var wire 32 ( MEM_WRITEDATA [31:0] $end
$var wire 1 ) MEM_WRITE $end
$var wire 32 * MEM_READATA [31:0] $end
$var wire 1 + MEM_READ $end
$var wire 1 , MEM_BUSYWAIT $end
$var wire 6 - MEM_ADDRESS [5:0] $end
$var wire 32 . INSTRUCTION [31:0] $end
$var wire 1 / IMEM_READ $end
$var wire 1 0 IMEM_BUSYWAIT $end
$var wire 6 1 IADDRESS [5:0] $end
$var wire 8 2 ADDRESS [7:0] $end
$var reg 1 3 CLK $end
$var reg 1 4 RESET $end
$scope module mycpu $end
$var wire 8 5 ADDRESS [7:0] $end
$var wire 1 ! BUSYWAIT $end
$var wire 1 3 CLK $end
$var wire 1 6 PCSELECT $end
$var wire 1 4 RESET $end
$var wire 8 7 WRITEDATA [7:0] $end
$var wire 1 8 ZERO $end
$var wire 1 9 WRITEENABLE $end
$var wire 1 # WRITE $end
$var wire 1 : WIRE1 $end
$var wire 1 ; REVERSE $end
$var wire 8 < REGOUT2 [7:0] $end
$var wire 8 = REGOUT1 [7:0] $end
$var wire 8 > READDATA [7:0] $end
$var wire 1 & READ $end
$var wire 32 ? PC_TARGET [31:0] $end
$var wire 32 @ PC_NEXT [31:0] $end
$var wire 32 A PC_4 [31:0] $end
$var wire 32 B PC [31:0] $end
$var wire 8 C OPCODE [7:0] $end
$var wire 1 D MUXSELECT3 $end
$var wire 1 E MUXSELECT2 $end
$var wire 1 F MUXSELECT1 $end
$var wire 8 G MUXOUT2 [7:0] $end
$var wire 8 H MUXOUT1 [7:0] $end
$var wire 1 I JUMP $end
$var wire 32 J INSTRUCTION [31:0] $end
$var wire 8 K IN [7:0] $end
$var wire 8 L IMMEDIATE [7:0] $end
$var wire 1 M HOLD $end
$var wire 8 N COMPOUT [7:0] $end
$var wire 2 O BRANCH [1:0] $end
$var wire 8 P ALURESULT [7:0] $end
$var wire 8 Q ALUOUT [7:0] $end
$var wire 3 R ALUOP [2:0] $end
$var wire 8 S ALUIN1 [7:0] $end
$scope module Alu $end
$var wire 8 T sra_result [7:0] $end
$var wire 8 U sl_result [7:0] $end
$var wire 8 V ror_result [7:0] $end
$var wire 8 W or_result [7:0] $end
$var wire 8 X mult_result [7:0] $end
$var wire 8 Y forward_result [7:0] $end
$var wire 8 Z and_result [7:0] $end
$var wire 8 [ add_result [7:0] $end
$var wire 1 8 ZERO $end
$var wire 3 \ SELECT [0:2] $end
$var wire 8 ] RESULT [7:0] $end
$var wire 8 ^ DATA2 [7:0] $end
$var wire 8 _ DATA1 [7:0] $end
$upscope $end
$scope module Control_Unit $end
$var wire 1 ! BUSYWAIT $end
$var wire 1 M HOLD $end
$var wire 8 ` OPCODE [7:0] $end
$var reg 3 a ALUOP [2:0] $end
$var reg 2 b BRANCH [1:0] $end
$var reg 1 F COMP_SELECT $end
$var reg 1 E IMMEDIATE_SELECT $end
$var reg 1 I JUMP $end
$var reg 1 D MEM_SELECT $end
$var reg 1 & READ $end
$var reg 1 ; REVERSE $end
$var reg 1 # WRITE $end
$var reg 1 9 WRITEENABLE $end
$upscope $end
$scope module MUX3 $end
$var wire 1 D SELECT $end
$var wire 8 c DATA2 [7:0] $end
$var wire 8 d DATA1 [7:0] $end
$var reg 8 e OUTPUT [7:0] $end
$upscope $end
$scope module Mux1 $end
$var wire 1 F SELECT $end
$var wire 8 f DATA2 [7:0] $end
$var wire 8 g DATA1 [7:0] $end
$var reg 8 h OUTPUT [7:0] $end
$upscope $end
$scope module Mux2 $end
$var wire 8 i DATA1 [7:0] $end
$var wire 8 j DATA2 [7:0] $end
$var wire 1 E SELECT $end
$var reg 8 k OUTPUT [7:0] $end
$upscope $end
$scope module Mux3 $end
$var wire 1 6 SELECT $end
$var wire 32 l DATA2 [31:0] $end
$var wire 32 m DATA1 [31:0] $end
$var reg 32 n OUTPUT [31:0] $end
$upscope $end
$scope module MuxBranch $end
$var wire 1 8 DATA1 $end
$var wire 2 o SELECT [1:0] $end
$var reg 1 : OUTPUT $end
$upscope $end
$scope module Pc $end
$var wire 1 3 CLK $end
$var wire 1 M HOLD $end
$var wire 32 p PC_TO [31:0] $end
$var wire 1 4 RESET $end
$var wire 32 q PC_NEXT [31:0] $end
$var reg 32 r PC [31:0] $end
$var reg 32 s PC_DO [31:0] $end
$var reg 32 t PC_HOLD [31:0] $end
$upscope $end
$scope module Pc_Adder $end
$var wire 32 u DATA1 [31:0] $end
$var wire 8 v DATA2 [7:0] $end
$var wire 32 w RESULT [31:0] $end
$upscope $end
$scope module Reg_File $end
$var wire 1 3 CLK $end
$var wire 8 x IN [7:0] $end
$var wire 3 y INADDRESS [2:0] $end
$var wire 8 z OUT1 [7:0] $end
$var wire 3 { OUT1ADDRESS [2:0] $end
$var wire 8 | OUT2 [7:0] $end
$var wire 3 } OUT2ADDRESS [2:0] $end
$var wire 1 4 RESET $end
$var wire 1 9 WRITE $end
$upscope $end
$scope module Revers1 $end
$var wire 8 ~ DATA [7:0] $end
$var wire 1 ; SELECT $end
$var reg 8 !" OUTPUT [7:0] $end
$upscope $end
$scope module Revers2 $end
$var wire 8 "" DATA [7:0] $end
$var wire 1 ; SELECT $end
$var reg 8 #" OUTPUT [7:0] $end
$upscope $end
$scope module Two_Com $end
$var wire 8 $" DATA [7:0] $end
$var wire 8 %" OUT [7:0] $end
$upscope $end
$upscope $end
$scope module mydata_memory $end
$var wire 1 3 clock $end
$var wire 1 4 reset $end
$var wire 32 &" writedata [31:0] $end
$var wire 1 ) write $end
$var wire 1 + read $end
$var wire 6 '" address [5:0] $end
$var reg 1 , busywait $end
$var reg 1 (" readaccess $end
$var reg 32 )" readdata [31:0] $end
$var reg 1 *" writeaccess $end
$scope begin $ivl_for_loop5 $end
$var integer 32 +" i [31:0] $end
$upscope $end
$upscope $end
$scope module mydcashe $end
$var wire 8 ," address [7:0] $end
$var wire 1 3 clock $end
$var wire 1 , mem_busywait $end
$var wire 32 -" mem_readdata [31:0] $end
$var wire 1 & read $end
$var wire 1 4 reset $end
$var wire 1 # write $end
$var wire 8 ." writedata [7:0] $end
$var wire 2 /" index [1:0] $end
$var parameter 3 0" IDLE $end
$var parameter 3 1" MEM_READ $end
$var parameter 3 2" MEM_WRITE $end
$var reg 1 3" busywait $end
$var reg 37 4" cache_entry [36:0] $end
$var reg 8 5" dataword [7:0] $end
$var reg 1 6" dirty $end
$var reg 1 7" hit $end
$var reg 6 8" mem_address [5:0] $end
$var reg 1 + mem_read $end
$var reg 1 ) mem_write $end
$var reg 32 9" mem_writedata [31:0] $end
$var reg 3 :" next_state [2:0] $end
$var reg 8 ;" readdata [7:0] $end
$var reg 3 <" state [2:0] $end
$var reg 3 =" tag [2:0] $end
$var reg 1 >" valid $end
$scope begin $ivl_for_loop6 $end
$var integer 32 ?" i [31:0] $end
$upscope $end
$upscope $end
$scope module myicache $end
$var wire 10 @" address [9:0] $end
$var wire 1 3 clock $end
$var wire 1 4 reset $end
$var wire 128 A" mem_readdata [127:0] $end
$var wire 1 0 mem_busywait $end
$var wire 3 B" index [2:0] $end
$var parameter 3 C" IDLE $end
$var parameter 3 D" MEM_READ $end
$var reg 1 E" busywait $end
$var reg 132 F" cache_entry [131:0] $end
$var reg 32 G" dataword [31:0] $end
$var reg 1 H" flag $end
$var reg 1 I" hit $end
$var reg 6 J" mem_address [5:0] $end
$var reg 1 / mem_read $end
$var reg 3 K" next_state [2:0] $end
$var reg 32 L" readdata [31:0] $end
$var reg 3 M" state [2:0] $end
$var reg 3 N" tag [2:0] $end
$var reg 1 O" valid $end
$scope begin $ivl_for_loop7 $end
$var integer 32 P" i [31:0] $end
$upscope $end
$upscope $end
$scope module myinstruction_memory $end
$var wire 6 Q" address [5:0] $end
$var wire 1 3 clock $end
$var wire 1 / read $end
$var reg 1 0 busywait $end
$var reg 1 R" readaccess $end
$var reg 128 S" readinst [127:0] $end
$upscope $end
$upscope $end
$scope module cpu_tb $end
$scope module mycpu $end
$scope module Reg_File $end
$var reg 8 T" \registers[0] [7:0] $end
$upscope $end
$upscope $end
$upscope $end
$scope module cpu_tb $end
$scope module mycpu $end
$scope module Reg_File $end
$var reg 8 U" \registers[1] [7:0] $end
$upscope $end
$upscope $end
$upscope $end
$scope module cpu_tb $end
$scope module mycpu $end
$scope module Reg_File $end
$var reg 8 V" \registers[2] [7:0] $end
$upscope $end
$upscope $end
$upscope $end
$scope module cpu_tb $end
$scope module mycpu $end
$scope module Reg_File $end
$var reg 8 W" \registers[3] [7:0] $end
$upscope $end
$upscope $end
$upscope $end
$scope module cpu_tb $end
$scope module mycpu $end
$scope module Reg_File $end
$var reg 8 X" \registers[4] [7:0] $end
$upscope $end
$upscope $end
$upscope $end
$scope module cpu_tb $end
$scope module mycpu $end
$scope module Reg_File $end
$var reg 8 Y" \registers[5] [7:0] $end
$upscope $end
$upscope $end
$upscope $end
$scope module cpu_tb $end
$scope module mycpu $end
$scope module Reg_File $end
$var reg 8 Z" \registers[6] [7:0] $end
$upscope $end
$upscope $end
$upscope $end
$scope module cpu_tb $end
$scope module mycpu $end
$scope module Reg_File $end
$var reg 8 [" \registers[7] [7:0] $end
$upscope $end
$upscope $end
$upscope $end
$enddefinitions $end
$comment Show the parameter values. $end
$dumpall
b1 D"
b0 C"
b10 2"
b1 1"
b0 0"
$end
#0
$dumpvars
bx ["
bx Z"
bx Y"
bx X"
bx W"
bx V"
bx U"
bx T"
bx S"
0R"
b0xxxxx Q"
b1000 P"
xO"
bx N"
b0 M"
bx L"
b0 K"
b0xxxxx J"
xI"
0H"
bx G"
bx F"
0E"
bx B"
bx A"
bx @"
b1000 ?"
x>"
bx ="
b0 <"
bx ;"
b0 :"
bx 9"
b0xxxxx 8"
x7"
x6"
bx 5"
bx 4"
03"
bx /"
bx ."
bx -"
bx ,"
b100000000 +"
0*"
bx )"
0("
b0xxxxx '"
bx &"
bx %"
bx $"
bx #"
bx ""
bx !"
bx ~
bx }
bx |
bx {
bx z
bx y
bx x
bx w
bx v
bx u
bx t
bx s
bx r
bx q
bx p
bx o
bx n
bx m
bx l
bx k
bx j
bx i
bx h
bx g
bx f
bx e
bx d
bx c
bx b
bx a
bx `
bx _
bx ^
bx ]
bx \
bx [
bx Z
bx Y
bx X
bx W
bx V
bx U
bx T
bx S
bx R
bx Q
bx P
bx O
bx N
0M
bx L
bx K
bx J
xI
bx H
bx G
xF
xE
xD
bx C
bx B
bx A
bx @
bx ?
bx >
bx =
bx <
x;
x:
x9
x8
bx 7
x6
bx 5
14
03
bx 2
b0xxxxx 1
00
0/
bx .
b0xxxxx -
0,
0+
bx *
0)
bx (
bx '
x&
bx %
bx $
x#
bx "
0!
$end
#9
07"
#40
13
#50
b0 B"
b0 @"
b0 '
b0 B
b0 r
b0 ["
b0 Z"
b0 Y"
b0 X"
b0 W"
b0 V"
b0 U"
b0 T"
04
#60
b100 s
b100 @
b100 n
b100 p
b0 F"
1H"
b100 A
b100 m
b100 q
b100 u
#69
b1 K"
0I"
b0 N"
0O"
#70
b0 G"
#80
03
#120
b0 t
1R"
10
xM
x!
1E"
b0 1
b0 J"
b0 Q"
1/
b1 M"
13
#130
0H"
b100 @"
b100 '
b100 B
b100 r
#140
b1000 s
b1000 @
b1000 n
b1000 p
1H"
b1000 A
b1000 m
b1000 q
b1000 u
#160
03
#200
13
#240
03
#280
13
#320
03
#360
13
#400
03
#440
13
#480
03
#520
13
#560
03
#600
13
bx00000001 $
bx00000001 A"
bx00000001 S"
#640
03
#680
13
#720
03
#760
13
#800
03
#840
13
#880
03
#920
13
#960
03
#1000
13
bx0000000000000001 $
bx0000000000000001 A"
bx0000000000000001 S"
#1040
03
#1080
13
#1120
03
#1160
13
#1200
03
#1240
13
#1280
03
#1320
13
#1360
03
#1400
13
bx000000000000000000000001 $
bx000000000000000000000001 A"
bx000000000000000000000001 S"
#1440
03
#1480
13
#1520
03
#1560
13
#1600
03
#1640
13
#1680
03
#1720
13
#1760
03
#1800
13
bx00000000000000000000000000000001 $
bx00000000000000000000000000000001 A"
bx00000000000000000000000000000001 S"
#1840
03
#1880
13
#1920
03
#1960
13
#2000
03
#2040
13
#2080
03
#2120
13
#2160
03
#2200
13
bx0000100000000000000000000000000000000001 $
bx0000100000000000000000000000000000000001 A"
bx0000100000000000000000000000000000000001 S"
#2240
03
#2280
13
#2320
03
#2360
13
#2400
03
#2440
13
#2480
03
#2520
13
#2560
03
#2600
13
bx000000000000100000000000000000000000000000000001 $
bx000000000000100000000000000000000000000000000001 A"
bx000000000000100000000000000000000000000000000001 S"
#2640
03
#2680
13
#2720
03
#2760
13
#2800
03
#2840
13
#2880
03
#2920
13
#2960
03
#3000
13
bx00000001000000000000100000000000000000000000000000000001 $
bx00000001000000000000100000000000000000000000000000000001 A"
bx00000001000000000000100000000000000000000000000000000001 S"
#3040
03
#3080
13
#3120
03
#3160
13
#3200
03
#3240
13
#3280
03
#3320
13
#3360
03
#3400
13
bx0000000000000001000000000000100000000000000000000000000000000001 $
bx0000000000000001000000000000100000000000000000000000000000000001 A"
bx0000000000000001000000000000100000000000000000000000000000000001 S"
#3440
03
#3480
13
#3520
03
#3560
13
#3600
03
#3640
13
#3680
03
#3720
13
#3760
03
#3800
13
bx000000000000000000000001000000000000100000000000000000000000000000000001 $
bx000000000000000000000001000000000000100000000000000000000000000000000001 A"
bx000000000000000000000001000000000000100000000000000000000000000000000001 S"
#3840
03
#3880
13
#3920
03
#3960
13
#4000
03
#4040
13
#4080
03
#4120
13
#4160
03
#4200
13
bx00000001000000000000000000000001000000000000100000000000000000000000000000000001 $
bx00000001000000000000000000000001000000000000100000000000000000000000000000000001 A"
bx00000001000000000000000000000001000000000000100000000000000000000000000000000001 S"
#4240
03
#4280
13
#4320
03
#4360
13
#4400
03
#4440
13
#4480
03
#4520
13
#4560
03
#4600
13
bx0000000000000001000000000000000000000001000000000000100000000000000000000000000000000001 $
bx0000000000000001000000000000000000000001000000000000100000000000000000000000000000000001 A"
bx0000000000000001000000000000000000000001000000000000100000000000000000000000000000000001 S"
#4640
03
#4680
13
#4720
03
#4760
13
#4800
03
#4840
13
#4880
03
#4920
13
#4960
03
#5000
13
bx000010100000000000000001000000000000000000000001000000000000100000000000000000000000000000000001 $
bx000010100000000000000001000000000000000000000001000000000000100000000000000000000000000000000001 A"
bx000010100000000000000001000000000000000000000001000000000000100000000000000000000000000000000001 S"
#5040
03
#5080
13
#5120
03
#5160
13
#5200
03
#5240
13
#5280
03
#5320
13
#5360
03
#5400
13
bx00000000000010100000000000000001000000000000000000000001000000000000100000000000000000000000000000000001 $
bx00000000000010100000000000000001000000000000000000000001000000000000100000000000000000000000000000000001 A"
bx00000000000010100000000000000001000000000000000000000001000000000000100000000000000000000000000000000001 S"
#5440
03
#5480
13
#5520
03
#5560
13
#5600
03
#5640
13
#5680
03
#5720
13
#5760
03
#5800
13
bx0000000000000000000010100000000000000001000000000000000000000001000000000000100000000000000000000000000000000001 $
bx0000000000000000000010100000000000000001000000000000000000000001000000000000100000000000000000000000000000000001 A"
bx0000000000000000000010100000000000000001000000000000000000000001000000000000100000000000000000000000000000000001 S"
#5840
03
#5880
13
#5920
03
#5960
13
#6000
03
#6040
13
#6080
03
#6120
13
#6160
03
#6200
13
bx000000100000000000000000000010100000000000000001000000000000000000000001000000000000100000000000000000000000000000000001 $
bx000000100000000000000000000010100000000000000001000000000000000000000001000000000000100000000000000000000000000000000001 A"
bx000000100000000000000000000010100000000000000001000000000000000000000001000000000000100000000000000000000000000000000001 S"
#6240
03
#6280
13
#6320
03
#6360
13
#6400
03
#6440
13
#6480
03
#6520
13
#6560
03
#6600
13
0R"
00
b1000000000100000000000000000000010100000000000000001000000000000000000000001000000000000100000000000000000000000000000000001 $
b1000000000100000000000000000000010100000000000000001000000000000000000000001000000000000100000000000000000000000000000000001 A"
b1000000000100000000000000000000010100000000000000001000000000000000000000001000000000000100000000000000000000000000000000001 S"
#6610
0H"
#6620
1H"
