Lab06/part3/mycpu/cpu_wavedata.vcd
$date
	Wed Jun 21 11:46:50 2023
$end
$version
	Icarus Verilog
$end
$timescale
	100ps
$end
$scope module cpu_tb $end
$var wire 1 ! BUSYWAIT $end
$var wire 8 " WRITEDATA [7:0] $end
$var wire 1 # WRITE $end
$var wire 128 $ READINST [127:0] $end
$var wire 8 % READDATA [7:0] $end
$var wire 1 & READ $end
$var wire 32 ' PC [31:0] $end
$var wire 32 ( MEM_WRITEDATA [31:0] $end
$var wire 1 ) MEM_WRITE $end
$var wire 32 * MEM_READATA [31:0] $end
$var wire 1 + MEM_READ $end
$var wire 1 , MEM_BUSYWAIT $end
$var wire 6 - MEM_ADDRESS [5:0] $end
$var wire 32 . INSTRUCTION [31:0] $end
$var wire 1 / IMEM_READ $end
$var wire 1 0 IMEM_BUSYWAIT $end
$var wire 6 1 IADDRESS [5:0] $end
$var wire 8 2 ADDRESS [7:0] $end
$var reg 1 3 CLK $end
$var reg 1 4 RESET $end
$scope module mycpu $end
$var wire 8 5 ADDRESS [7:0] $end
$var wire 1 ! BUSYWAIT $end
$var wire 1 3 CLK $end
$var wire 1 6 PCSELECT $end
$var wire 1 4 RESET $end
$var wire 8 7 WRITEDATA [7:0] $end
$var wire 1 8 ZERO $end
$var wire 1 9 WRITEENABLE $end
$var wire 1 # WRITE $end
$var wire 1 : WIRE1 $end
$var wire 1 ; REVERSE $end
$var wire 8 < REGOUT2 [7:0] $end
$var wire 8 = REGOUT1 [7:0] $end
$var wire 8 > READDATA [7:0] $end
$var wire 1 & READ $end
$var wire 32 ? PC_TARGET [31:0] $end
$var wire 32 @ PC_NEXT [31:0] $end
$var wire 32 A PC_4 [31:0] $end
$var wire 32 B PC [31:0] $end
$var wire 8 C OPCODE [7:0] $end
$var wire 1 D MUXSELECT3 $end
$var wire 1 E MUXSELECT2 $end
$var wire 1 F MUXSELECT1 $end
$var wire 8 G MUXOUT2 [7:0] $end
$var wire 8 H MUXOUT1 [7:0] $end
$var wire 1 I JUMP $end
$var wire 32 J INSTRUCTION [31:0] $end
$var wire 8 K IN [7:0] $end
$var wire 8 L IMMEDIATE [7:0] $end
$var wire 1 M HOLD $end
$var wire 8 N COMPOUT [7:0] $end
$var wire 2 O BRANCH [1:0] $end
$var wire 8 P ALURESULT [7:0] $end
$var wire 8 Q ALUOUT [7:0] $end
$var wire 3 R ALUOP [2:0] $end
$var wire 8 S ALUIN1 [7:0] $end
$scope module Alu $end
$var wire 8 T sra_result [7:0] $end
$var wire 8 U sl_result [7:0] $end
$var wire 8 V ror_result [7:0] $end
$var wire 8 W or_result [7:0] $end
$var wire 8 X mult_result [7:0] $end
$var wire 8 Y forward_result [7:0] $end
$var wire 8 Z and_result [7:0] $end
$var wire 8 [ add_result [7:0] $end
$var wire 1 8 ZERO $end
$var wire 3 \ SELECT [0:2] $end
$var wire 8 ] RESULT [7:0] $end
$var wire 8 ^ DATA2 [7:0] $end
$var wire 8 _ DATA1 [7:0] $end
$upscope $end
$scope module Control_Unit $end
$var wire 1 ! BUSYWAIT $end
$var wire 1 M HOLD $end
$var wire 8 ` OPCODE [7:0] $end
$var reg 3 a ALUOP [2:0] $end
$var reg 2 b BRANCH [1:0] $end
$var reg 1 F COMP_SELECT $end
$var reg 1 E IMMEDIATE_SELECT $end
$var reg 1 I JUMP $end
$var reg 1 D MEM_SELECT $end
$var reg 1 & READ $end
$var reg 1 ; REVERSE $end
$var reg 1 # WRITE $end
$var reg 1 9 WRITEENABLE $end
$upscope $end
$scope module MUX3 $end
$var wire 1 D SELECT $end
$var wire 8 c DATA2 [7:0] $end
$var wire 8 d DATA1 [7:0] $end
$var reg 8 e OUTPUT [7:0] $end
$upscope $end
$scope module Mux1 $end
$var wire 1 F SELECT $end
$var wire 8 f DATA2 [7:0] $end
$var wire 8 g DATA1 [7:0] $end
$var reg 8 h OUTPUT [7:0] $end
$upscope $end
$scope module Mux2 $end
$var wire 8 i DATA1 [7:0] $end
$var wire 8 j DATA2 [7:0] $end
$var wire 1 E SELECT $end
$var reg 8 k OUTPUT [7:0] $end
$upscope $end
$scope module Mux3 $end
$var wire 1 6 SELECT $end
$var wire 32 l DATA2 [31:0] $end
$var wire 32 m DATA1 [31:0] $end
$var reg 32 n OUTPUT [31:0] $end
$upscope $end
$scope module MuxBranch $end
$var wire 1 8 DATA1 $end
$var wire 2 o SELECT [1:0] $end
$var reg 1 : OUTPUT $end
$upscope $end
$scope module Pc $end
$var wire 1 3 CLK $end
$var wire 1 M HOLD $end
$var wire 32 p PC_TO [31:0] $end
$var wire 1 4 RESET $end
$var wire 32 q PC_NEXT [31:0] $end
$var reg 32 r PC [31:0] $end
$var reg 32 s PC_DO [31:0] $end
$var reg 32 t PC_HOLD [31:0] $end
$upscope $end
$scope module Pc_Adder $end
$var wire 32 u DATA1 [31:0] $end
$var wire 8 v DATA2 [7:0] $end
$var wire 32 w RESULT [31:0] $end
$upscope $end
$scope module Reg_File $end
$var wire 1 3 CLK $end
$var wire 8 x IN [7:0] $end
$var wire 3 y INADDRESS [2:0] $end
$var wire 8 z OUT1 [7:0] $end
$var wire 3 { OUT1ADDRESS [2:0] $end
$var wire 8 | OUT2 [7:0] $end
$var wire 3 } OUT2ADDRESS [2:0] $end
$var wire 1 4 RESET $end
$var wire 1 9 WRITE $end
$upscope $end
$scope module Revers1 $end
$var wire 8 ~ DATA [7:0] $end
$var wire 1 ; SELECT $end
$var reg 8 !" OUTPUT [7:0] $end
$upscope $end
$scope module Revers2 $end
$var wire 8 "" DATA [7:0] $end
$var wire 1 ; SELECT $end
$var reg 8 #" OUTPUT [7:0] $end
$upscope $end
$scope module Two_Com $end
$var wire 8 $" DATA [7:0] $end
$var wire 8 %" OUT [7:0] $end
$upscope $end
$upscope $end
$scope module mydata_memory $end
$var wire 1 3 clock $end
$var wire 1 4 reset $end
$var wire 32 &" writedata [31:0] $end
$var wire 1 ) write $end
$var wire 1 + read $end
$var wire 6 '" address [5:0] $end
$var reg 1 , busywait $end
$var reg 1 (" readaccess $end
$var reg 32 )" readdata [31:0] $end
$var reg 1 *" writeaccess $end
$scope begin $ivl_for_loop5 $end
$var integer 32 +" i [31:0] $end
$upscope $end
$upscope $end
$scope module mydcashe $end
$var wire 8 ," address [7:0] $end
$var wire 1 3 clock $end
$var wire 1 , mem_busywait $end
$var wire 32 -" mem_readdata [31:0] $end
$var wire 1 & read $end
$var wire 1 4 reset $end
$var wire 1 # write $end
$var wire 8 ." writedata [7:0] $end
$var wire 2 /" index [1:0] $end
$var parameter 3 0" IDLE $end
$var parameter 3 1" MEM_READ $end
$var parameter 3 2" MEM_WRITE $end
$var reg 1 3" busywait $end
$var reg 37 4" cache_entry [36:0] $end
$var reg 8 5" dataword [7:0] $end
$var reg 1 6" dirty $end
$var reg 1 7" hit $end
$var reg 6 8" mem_address [5:0] $end
$var reg 1 + mem_read $end
$var reg 1 ) mem_write $end
$var reg 32 9" mem_writedata [31:0] $end
$var reg 3 :" next_state [2:0] $end
$var reg 8 ;" readdata [7:0] $end
$var reg 3 <" state [2:0] $end
$var reg 3 =" tag [2:0] $end
$var reg 1 >" valid $end
$scope begin $ivl_for_loop6 $end
$var integer 32 ?" i [31:0] $end
$upscope $end
$upscope $end
$scope module myicache $end
$var wire 10 @" address [9:0] $end
$var wire 1 3 clock $end
$var wire 1 4 reset $end
$var wire 128 A" mem_readdata [127:0] $end
$var wire 1 0 mem_busywait $end
$var wire 3 B" index [2:0] $end
$var parameter 3 C" IDLE $end
$var parameter 3 D" MEM_READ $end
$var reg 1 E" busywait $end
$var reg 132 F" cache_entry [131:0] $end
$var reg 32 G" dataword [31:0] $end
$var reg 1 H" flag $end
$var reg 1 I" hit $end
$var reg 6 J" mem_address [5:0] $end
$var reg 1 / mem_read $end
$var reg 3 K" next_state [2:0] $end
$var reg 32 L" readdata [31:0] $end
$var reg 3 M" state [2:0] $end
$var reg 3 N" tag [2:0] $end
$var reg 1 O" valid $end
$scope begin $ivl_for_loop7 $end
$var integer 32 P" i [31:0] $end
$upscope $end
$upscope $end
$scope module myinstruction_memory $end
$var wire 6 Q" address [5:0] $end
$var wire 1 3 clock $end
$var wire 1 / read $end
$var reg 1 0 busywait $end
$var reg 1 R" readaccess $end
$var reg 128 S" readinst [127:0] $end
$upscope $end
$upscope $end
$scope module cpu_tb $end
$scope module mycpu $end
$scope module Reg_File $end
$var reg 8 T" \registers[0] [7:0] $end
$upscope $end
$upscope $end
$upscope $end
$scope module cpu_tb $end
$scope module mycpu $end
$scope module Reg_File $end
$var reg 8 U" \registers[1] [7:0] $end
$upscope $end
$upscope $end
$upscope $end
$scope module cpu_tb $end
$scope module mycpu $end
$scope module Reg_File $end
$var reg 8 V" \registers[2] [7:0] $end
$upscope $end
$upscope $end
$upscope $end
$scope module cpu_tb $end
$scope module mycpu $end
$scope module Reg_File $end
$var reg 8 W" \registers[3] [7:0] $end
$upscope $end
$upscope $end
$upscope $end
$scope module cpu_tb $end
$scope module mycpu $end
$scope module Reg_File $end
$var reg 8 X" \registers[4] [7:0] $end
$upscope $end
$upscope $end
$upscope $end
$scope module cpu_tb $end
$scope module mycpu $end
$scope module Reg_File $end
$var reg 8 Y" \registers[5] [7:0] $end
$upscope $end
$upscope $end
$upscope $end
$scope module cpu_tb $end
$scope module mycpu $end
$scope module Reg_File $end
$var reg 8 Z" \registers[6] [7:0] $end
$upscope $end
$upscope $end
$upscope $end
$scope module cpu_tb $end
$scope module mycpu $end
$scope module Reg_File $end
$var reg 8 [" \registers[7] [7:0] $end
$upscope $end
$upscope $end
$upscope $end
$enddefinitions $end
$comment Show the parameter values. $end
$dumpall
b1 D"
b0 C"
b10 2"
b1 1"
b0 0"
$end
#0
$dumpvars
bx ["
bx Z"
bx Y"
bx X"
bx W"
bx V"
bx U"
bx T"
bx S"
0R"
b0xxxxx Q"
b1000 P"
xO"
bx N"
b0 M"
bx L"
b0 K"
b0xxxxx J"
xI"
0H"
bx G"
bx F"
0E"
bx B"
bx A"
bx @"
b1000 ?"
x>"
bx ="
b0 <"
bx ;"
b0 :"
bx 9"
b0xxxxx 8"
x7"
x6"
bx 5"
bx 4"
03"
bx /"
bx ."
bx -"
bx ,"
b100000000 +"
0*"
bx )"
0("
b0xxxxx '"
bx &"
bx %"
bx $"
bx #"
bx ""
bx !"
bx ~
bx }
bx |
bx {
bx z
bx y
bx x
bx w
bx v
bx u
bx t
bx s
bx r
bx q
bx p
bx o
bx n
bx m
bx l
bx k
bx j
bx i
bx h
bx g
bx f
bx e
bx d
bx c
bx b
bx a
bx `
bx _
bx ^
bx ]
bx \
bx [
bx Z
bx Y
bx X
bx W
bx V
bx U
bx T
bx S
bx R
bx Q
bx P
bx O
bx N
0M
bx L
bx K
bx J
xI
bx H
bx G
xF
xE
xD
bx C
bx B
bx A
bx @
bx ?
bx >
bx =
bx <
x;
x:
x9
x8
bx 7
x6
bx 5
14
03
bx 2
b0xxxxx 1
00
0/
bx .
b0xxxxx -
0,
0+
bx *
0)
bx (
bx '
x&
bx %
bx $
x#
bx "
0!
$end
#9
b1 K"
07"
0I"
#40
13
#50
b0 t
1R"
10
b0 B"
xM
x!
1E"
b0 1
b0 J"
b0 Q"
1/
b0 @"
b1 M"
b0 '
b0 B
b0 r
1H"
b0 ["
b0 Z"
b0 Y"
b0 X"
b0 W"
b0 V"
b0 U"
b0 T"
04
#60
b100 s
b100 @
b100 n
b100 p
0H"
b0 F"
b100 A
b100 m
b100 q
b100 u
#69
b0 N"
0O"
#70
b0 G"
#80
03
#120
13
#130
1H"
#160
03
#200
13
#210
0H"
#240
03
#280
13
#290
1H"
#320
03
#360
13
#370
0H"
#400
03
#440
13
#450
1H"
#480
03
#520
13
bx00000001 $
bx00000001 A"
bx00000001 S"
#530
0H"
#560
03
#600
13
#610
1H"
#640
03
#680
13
#690
0H"
#720
03
#760
13
#770
1H"
#800
03
#840
13
#850
0H"
#880
03
#920
13
bx0000000000000001 $
bx0000000000000001 A"
bx0000000000000001 S"
#930
1H"
#960
03
#1000
13
#1010
0H"
#1040
03
#1080
13
#1090
1H"
#1120
03
#1160
13
#1170
0H"
#1200
03
#1240
13
#1250
1H"
#1280
03
#1320
13
bx000000000000000000000001 $
bx000000000000000000000001 A"
bx000000000000000000000001 S"
#1330
0H"
#1360
03
#1400
13
#1410
1H"
#1440
03
#1480
13
#1490
0H"
#1520
03
#1560
13
#1570
1H"
#1600
03
#1640
13
#1650
0H"
#1680
03
#1720
13
bx00000000000000000000000000000001 $
bx00000000000000000000000000000001 A"
bx00000000000000000000000000000001 S"
#1730
1H"
#1760
03
#1800
13
#1810
0H"
#1840
03
#1880
13
#1890
1H"
#1920
03
#1960
13
#1970
0H"
#2000
03
#2040
13
#2050
1H"
#2080
03
#2120
13
bx0000100000000000000000000000000000000001 $
bx0000100000000000000000000000000000000001 A"
bx0000100000000000000000000000000000000001 S"
#2130
0H"
#2160
03
#2200
13
#2210
1H"
#2240
03
#2280
13
#2290
0H"
#2320
03
#2360
13
#2370
1H"
#2400
03
#2440
13
#2450
0H"
#2480
03
#2520
13
bx000000000000100000000000000000000000000000000001 $
bx000000000000100000000000000000000000000000000001 A"
bx000000000000100000000000000000000000000000000001 S"
#2530
1H"
#2560
03
#2600
13
#2610
0H"
#2640
03
#2680
13
#2690
1H"
#2720
03
#2760
13
#2770
0H"
#2800
03
#2840
13
#2850
1H"
#2880
03
#2920
13
bx00000001000000000000100000000000000000000000000000000001 $
bx00000001000000000000100000000000000000000000000000000001 A"
bx00000001000000000000100000000000000000000000000000000001 S"
#2930
0H"
#2960
03
#3000
13
#3010
1H"
#3040
03
#3080
13
#3090
0H"
#3120
03
#3160
13
#3170
1H"
#3200
03
#3240
13
#3250
0H"
#3280
03
#3320
13
bx0000000000000001000000000000100000000000000000000000000000000001 $
bx0000000000000001000000000000100000000000000000000000000000000001 A"
bx0000000000000001000000000000100000000000000000000000000000000001 S"
#3330
1H"
#3360
03
#3400
13
#3410
0H"
#3440
03
#3480
13
#3490
1H"
#3520
03
#3560
13
#3570
0H"
#3600
03
#3640
13
#3650
1H"
#3680
03
#3720
13
bx000000000000000000000001000000000000100000000000000000000000000000000001 $
bx000000000000000000000001000000000000100000000000000000000000000000000001 A"
bx000000000000000000000001000000000000100000000000000000000000000000000001 S"
#3730
0H"
#3760
03
#3800
13
#3810
1H"
#3840
03
#3880
13
#3890
0H"
#3920
03
#3960
13
#3970
1H"
#4000
03
#4040
13
#4050
0H"
#4080
03
#4120
13
bx00000001000000000000000000000001000000000000100000000000000000000000000000000001 $
bx00000001000000000000000000000001000000000000100000000000000000000000000000000001 A"
bx00000001000000000000000000000001000000000000100000000000000000000000000000000001 S"
#4130
1H"
#4160
03
#4200
13
#4210
0H"
#4240
03
#4280
13
#4290
1H"
#4320
03
#4360
13
#4370
0H"
#4400
03
#4440
13
#4450
1H"
#4480
03
#4520
13
bx0000000000000001000000000000000000000001000000000000100000000000000000000000000000000001 $
bx0000000000000001000000000000000000000001000000000000100000000000000000000000000000000001 A"
bx0000000000000001000000000000000000000001000000000000100000000000000000000000000000000001 S"
#4530
0H"
#4560
03
#4600
13
#4610
1H"
#4640
03
#4680
13
#4690
0H"
#4720
03
#4760
13
#4770
1H"
#4800
03
#4840
13
#4850
0H"
#4880
03
#4920
13
bx000010100000000000000001000000000000000000000001000000000000100000000000000000000000000000000001 $
bx000010100000000000000001000000000000000000000001000000000000100000000000000000000000000000000001 A"
bx000010100000000000000001000000000000000000000001000000000000100000000000000000000000000000000001 S"
#4930
1H"
#4960
03
#5000
13
#5010
0H"
#5040
03
#5080
13
#5090
1H"
#5120
03
#5160
13
#5170
0H"
#5200
03
#5240
13
#5250
1H"
#5280
03
#5320
13
bx00000000000010100000000000000001000000000000000000000001000000000000100000000000000000000000000000000001 $
bx00000000000010100000000000000001000000000000000000000001000000000000100000000000000000000000000000000001 A"
bx00000000000010100000000000000001000000000000000000000001000000000000100000000000000000000000000000000001 S"
#5330
0H"
#5360
03
#5400
13
#5410
1H"
#5440
03
#5480
13
#5490
0H"
#5520
03
#5560
13
#5570
1H"
#5600
03
#5640
13
#5650
0H"
#5680
03
#5720
13
bx0000000000000000000010100000000000000001000000000000000000000001000000000000100000000000000000000000000000000001 $
bx0000000000000000000010100000000000000001000000000000000000000001000000000000100000000000000000000000000000000001 A"
bx0000000000000000000010100000000000000001000000000000000000000001000000000000100000000000000000000000000000000001 S"
#5730
1H"
#5760
03
#5800
13
#5810
0H"
#5840
03
#5880
13
#5890
1H"
#5920
03
#5960
13
#5970
0H"
#6000
03
#6040
13
#6050
1H"
#6080
03
#6120
13
bx000000100000000000000000000010100000000000000001000000000000000000000001000000000000100000000000000000000000000000000001 $
bx000000100000000000000000000010100000000000000001000000000000000000000001000000000000100000000000000000000000000000000001 A"
bx000000100000000000000000000010100000000000000001000000000000000000000001000000000000100000000000000000000000000000000001 S"
#6130
0H"
#6160
03
#6200
13
#6210
1H"
#6240
03
#6280
13
#6290
0H"
#6320
03
#6360
13
#6370
1H"
#6400
03
#6440
13
#6450
0H"
#6480
03
#6520
13
0R"
00
b1000000000100000000000000000000010100000000000000001000000000000000000000001000000000000100000000000000000000000000000000001 $
b1000000000100000000000000000000010100000000000000001000000000000000000000001000000000000100000000000000000000000000000000001 A"
b1000000000100000000000000000000010100000000000000001000000000000000000000001000000000000100000000000000000000000000000000001 S"
#6530
1H"
b100000001000000000100000000000000000000010100000000000000001000000000000000000000001000000000000100000000000000000000000000000000001 F"
#6539
b0 K"
1I"
1O"
#6540
b1 G"
#6560
03
#6600
b0 s
0M
0!
0E"
b0xxxxx 1
b0xxxxx J"
b0xxxxx Q"
0/
b0 M"
13
#6610
0H"
#6640
b100 s
03
#6680
13
#6690
b100 @"
b100 '
b100 B
b100 r
1H"
#6700
b1000 s
b1000 @
b1000 n
b1000 p
b10000000000001000 G"
b1000 A
b1000 m
b1000 q
b1000 u
#6720
03
#6760
13
#6770
b1000 @"
b1000 '
b1000 B
b1000 r
0H"
#6780
b1100 s
b1100 @
b1100 n
b1100 p
b1010000000000000000100000000 G"
b1100 A
b1100 m
b1100 q
b1100 u
#6800
03
#6840
13
#6850
b1100 @"
b1100 '
b1100 B
b1100 r
1H"
#6860
b10000 s
b10000 @
b10000 n
b10000 p
b1000000000100000000000000000 G"
b10000 A
b10000 m
b10000 q
b10000 u
#6880
03
#6920
13
#6930
b1 B"
b10000 @"
b10000 '
b10000 B
b10000 r
0H"
#6940
b10100 s
b10100 @
b10100 n
b10100 p
1H"
b0 F"
b1 G"
b10100 A
b10100 m
b10100 q
b10100 u
#6949
b1 K"
0I"
0O"
#6950
b0 G"
#6960
03
#7000
b10000 t
1R"
10
xM
x!
1E"
b1 1
b1 J"
b1 Q"
1/
b1 M"
13
#7010
0H"
#7040
03
#7080
13
#7090
1H"
#7120
03
#7160
13
#7170
0H"
#7200
03
#7240
13
#7250
1H"
#7280
03
#7320
13
#7330
0H"
#7360
03
#7400
13
b1000000000100000000000000000000010100000000000000001000000000000000000000001000000000000100000000000000000000000000000000000 $
b1000000000100000000000000000000010100000000000000001000000000000000000000001000000000000100000000000000000000000000000000000 A"
b1000000000100000000000000000000010100000000000000001000000000000000000000001000000000000100000000000000000000000000000000000 S"
#7410
1H"
#7440
03
#7480
13
#7490
0H"
#7520
03
#7560
13
#7570
1H"
#7600
03
#7640
13
#7650
0H"
#7680
03
#7720
13
#7730
1H"
#7760
03
#7800
13
#7810
0H"
#7840
03
#7880
13
#7890
1H"
#7920
03
#7960
13
#7970
0H"
#8000
03
#8040
13
#8050
1H"
#8080
03
#8120
13
#8130
0H"
#8160
03
#8200
13
#8210
1H"
#8240
03
#8280
13
#8290
0H"
#8320
03
#8360
13
#8370
1H"
#8400
03
#8440
13
#8450
0H"
#8480
03
#8520
13
#8530
1H"
#8560
03
#8600
13
b1000000000100000000000000000000010100000000000000001000000000000000000000001000000000000100000001011000000000000000000000000 $
b1000000000100000000000000000000010100000000000000001000000000000000000000001000000000000100000001011000000000000000000000000 A"
b1000000000100000000000000000000010100000000000000001000000000000000000000001000000000000100000001011000000000000000000000000 S"
#8610
0H"
#8640
03
#8680
13
#8690
1H"
#8720
03
#8760
13
#8770
0H"
#8800
03
#8840
13
#8850
1H"
#8880
03
#8920
13
#8930
0H"
#8960
03
#9000
13
b1000000000100000000000000000000010100000000000000001000000000000000000000001000000000000000000001011000000000000000000000000 $
b1000000000100000000000000000000010100000000000000001000000000000000000000001000000000000000000001011000000000000000000000000 A"
b1000000000100000000000000000000010100000000000000001000000000000000000000001000000000000000000001011000000000000000000000000 S"
#9010
1H"
#9040
03
#9080
13
#9090
0H"
#9120
03
#9160
13
#9170
1H"
#9200
03
#9240
13
#9250
0H"
#9280
03
#9320
13
#9330
1H"
#9360
03
#9400
13
#9410
0H"
#9440
03
#9480
13
#9490
1H"
#9520
03
#9560
13
#9570
0H"
#9600
03
#9640
13
#9650
1H"
#9680
03
#9720
13
#9730
0H"
#9760
03
#9800
13
b1000000000100000000000000000000010100000000000000001000000000000000000000011000000000000000000001011000000000000000000000000 $
b1000000000100000000000000000000010100000000000000001000000000000000000000011000000000000000000001011000000000000000000000000 A"
b1000000000100000000000000000000010100000000000000001000000000000000000000011000000000000000000001011000000000000000000000000 S"
#9810
1H"
#9840
03
#9880
13
#9890
0H"
#9920
03
#9960
13
#9970
1H"
#10000
03
#10040
13
#10050
0H"
#10080
03
#10120
13
#10130
1H"
#10160
03
#10200
13
b1000000000100000000000000000000010100000000000000001000000000000100100000011000000000000000000001011000000000000000000000000 $
b1000000000100000000000000000000010100000000000000001000000000000100100000011000000000000000000001011000000000000000000000000 A"
b1000000000100000000000000000000010100000000000000001000000000000100100000011000000000000000000001011000000000000000000000000 S"
#10210
0H"
#10240
03
#10280
13
#10290
1H"
#10320
03
#10360
13
#10370
0H"
#10400
03
#10440
13
#10450
1H"
#10480
03
#10520
13
#10530
0H"
#10560
03
#10600
13
b1000000000100000000000000000000010100000000000000001001000000000100100000011000000000000000000001011000000000000000000000000 $
b1000000000100000000000000000000010100000000000000001001000000000100100000011000000000000000000001011000000000000000000000000 A"
b1000000000100000000000000000000010100000000000000001001000000000100100000011000000000000000000001011000000000000000000000000 S"
#10610
1H"
#10640
03
#10680
13
#10690
0H"
#10720
03
#10760
13
#10770
1H"
#10800
03
#10840
13
#10850
0H"
#10880
03
#10920
13
#10930
1H"
#10960
03
#11000
13
#11010
0H"
#11040
03
#11080
13
#11090
1H"
#11120
03
#11160
13
#11170
0H"
#11200
03
#11240
13
#11250
1H"
#11280
03
#11320
13
#11330
0H"
#11360
03
#11400
13
#11410
1H"
#11440
03
#11480
13
#11490
0H"
#11520
03
#11560
13
#11570
1H"
#11600
03
#11640
13
#11650
0H"
#11680
03
#11720
13
#11730
1H"
#11760
03
#11800
13
b1000000000100000000000000000000010110000000000000001001000000000100100000011000000000000000000001011000000000000000000000000 $
b1000000000100000000000000000000010110000000000000001001000000000100100000011000000000000000000001011000000000000000000000000 A"
b1000000000100000000000000000000010110000000000000001001000000000100100000011000000000000000000001011000000000000000000000000 S"
#11810
0H"
#11840
03
#11880
13
#11890
1H"
#11920
03
#11960
13
#11970
0H"
#12000
03
#12040
13
#12050
1H"
#12080
03
#12120
13
#12130
0H"
#12160
03
#12200
13
b1000000000100000000000100000000010110000000000000001001000000000100100000011000000000000000000001011000000000000000000000000 $
b1000000000100000000000100000000010110000000000000001001000000000100100000011000000000000000000001011000000000000000000000000 A"
b1000000000100000000000100000000010110000000000000001001000000000100100000011000000000000000000001011000000000000000000000000 S"
#12210
1H"
#12240
03
#12280
13
#12290
0H"
#12320
03
#12360
13
#12370
1H"
#12400
03
#12440
13
#12450
0H"
#12480
03
#12520
13
#12530
1H"
#12560
03
#12600
13
#12610
0H"
#12640
03
#12680
13
#12690
1H"
#12720
03
#12760
13
#12770
0H"
#12800
03
#12840
13
#12850
1H"
#12880
03
#12920
13
#12930
0H"
#12960
03
#13000
13
b1000000001000000000000100000000010110000000000000001001000000000100100000011000000000000000000001011000000000000000000000000 $
b1000000001000000000000100000000010110000000000000001001000000000100100000011000000000000000000001011000000000000000000000000 A"
b1000000001000000000000100000000010110000000000000001001000000000100100000011000000000000000000001011000000000000000000000000 S"
#13010
1H"
#13040
03
#13080
13
#13090
0H"
#13120
03
#13160
13
#13170
1H"
#13200
03
#13240
13
#13250
0H"
#13280
03
#13320
13
#13330
1H"
#13360
03
#13400
13
0R"
00
b1001000001000000000000100000000010110000000000000001001000000000100100000011000000000000000000001011000000000000000000000000 $
b1001000001000000000000100000000010110000000000000001001000000000100100000011000000000000000000001011000000000000000000000000 A"
b1001000001000000000000100000000010110000000000000001001000000000100100000011000000000000000000001011000000000000000000000000 S"
#13410
0H"
b100000001001000001000000000000100000000010110000000000000001001000000000100100000011000000000000000000001011000000000000000000000000 F"
#13419
b0 K"
1I"
1O"
#13420
b1011000000000000000000000000 G"
#13440
03
#13480
b10000 s
0M
0!
0E"
b0xxxxx 1
b0xxxxx J"
b0xxxxx Q"
0/
b0 M"
13
#13490
1H"
#13520
b10100 s
03
#13560
13
#13570
b10100 @"
b10100 '
b10100 B
b10100 r
0H"
#13580
b11000 s
b11000 @
b11000 n
b11000 p
b1001000000110000000000000000 G"
b11000 A
b11000 m
b11000 q
b11000 u
#13600
03
#13640
13
#13650
b11000 @"
b11000 '
b11000 B
b11000 r
1H"
#13660
b11100 s
b11100 @
b11100 n
b11100 p
b1011000000000000000100100000 G"
b11100 A
b11100 m
b11100 q
b11100 u
#13680
03
#13720
13
#13730
b11100 @"
b11100 '
b11100 B
b11100 r
0H"
#13740
b100000 s
b100000 @
b100000 n
b100000 p
b1001000001000000000000100000 G"
b100000 A
b100000 m
b100000 q
b100000 u
#13760
03
#13800
13
#13810
b10 B"
b100000 @"
b100000 '
b100000 B
b100000 r
1H"
#13820
b100100 s
b100100 @
b100100 n
b100100 p
0H"
b0 F"
b1011000000000000000000000000 G"
b100100 A
b100100 m
b100100 q
b100100 u
#13829
b1 K"
0I"
0O"
#13830
b0 G"
#13840
03
#13880
b100000 t
1R"
10
xM
x!
1E"
b10 1
b10 J"
b10 Q"
1/
b1 M"
13
#13890
1H"
#13920
03
#13960
13
#13970
0H"
#14000
03
#14040
13
#14050
1H"
#14080
03
#14120
13
#14130
0H"
#14160
03
#14200
13
#14210
1H"
#14240
03
#14280
13
#14290
0H"
#14320
03
#14360
13
#14370
1H"
#14400
03
#14440
13
#14450
0H"
#14480
03
#14520
13
#14530
1H"
#14560
03
#14600
13
#14610
0H"
#14640
03
#14680
13
#14690
1H"
#14720
03
#14760
13
#14770
0H"
#14800
03
#14840
13
#14850
1H"
#14880
03
#14920
13
#14930
0H"
#14960
03
#15000
13
#15010
1H"
#15040
03
#15080
13
b1001000001000000000000100000000010110000000000000001001000000000100100000011000000000000000000001011000001010000000000000000 $
b1001000001000000000000100000000010110000000000000001001000000000100100000011000000000000000000001011000001010000000000000000 A"
b1001000001000000000000100000000010110000000000000001001000000000100100000011000000000000000000001011000001010000000000000000 S"
#15090
0H"
#15120
03
#15160
13
#15170
1H"
#15200
03
#15240
13
#15250
0H"
#15280
03
#15320
13
#15330
1H"
#15360
03
#15400
13
#15410
0H"
#15440
03
#15480
13
b1001000001000000000000100000000010110000000000000001001000000000100100000011000000000000000000001001000001010000000000000000 $
b1001000001000000000000100000000010110000000000000001001000000000100100000011000000000000000000001001000001010000000000000000 A"
b1001000001000000000000100000000010110000000000000001001000000000100100000011000000000000000000001001000001010000000000000000 S"
#15490
1H"
#15520
03
#15560
13
#15570
0H"
#15600
03
#15640
13
#15650
1H"
#15680
03
#15720
13
#15730
0H"
#15760
03
#15800
13
#15810
1H"
#15840
03
#15880
13
b1001000001000000000000100000000010110000000000000001001000000000100100000011000000000010000000001001000001010000000000000000 $
b1001000001000000000000100000000010110000000000000001001000000000100100000011000000000010000000001001000001010000000000000000 A"
b1001000001000000000000100000000010110000000000000001001000000000100100000011000000000010000000001001000001010000000000000000 S"
#15890
0H"
#15920
03
#15960
13
#15970
1H"
#16000
03
#16040
13
#16050
0H"
#16080
03
#16120
13
#16130
1H"
#16160
03
#16200
13
#16210
0H"
#16240
03
#16280
13
#16290
1H"
#16320
03
#16360
13
#16370
0H"
#16400
03
#16440
13
#16450
1H"
#16480
03
#16520
13
#16530
0H"
#16560
03
#16600
13
#16610
1H"
#16640
03
#16680
13
b1001000001000000000000100000000010110000000000000001001000000000100100000110000000000010000000001001000001010000000000000000 $
b1001000001000000000000100000000010110000000000000001001000000000100100000110000000000010000000001001000001010000000000000000 A"
b1001000001000000000000100000000010110000000000000001001000000000100100000110000000000010000000001001000001010000000000000000 S"
#16690
0H"
#16720
03
#16760
13
#16770
1H"
#16800
03
#16840
13
#16850
0H"
#16880
03
#16920
13
#16930
1H"
#16960
03
#17000
13
#17010
0H"
#17040
03
#17080
13
#17090
1H"
#17120
03
#17160
13
#17170
0H"
#17200
03
#17240
13
#17250
1H"
#17280
03
#17320
13
#17330
0H"
#17360
03
#17400
13
#17410
1H"
#17440
03
#17480
13
b1001000001000000000000100000000010110000000000000001xxxxxxxx0000100100000110000000000010000000001001000001010000000000000000 $
b1001000001000000000000100000000010110000000000000001xxxxxxxx0000100100000110000000000010000000001001000001010000000000000000 A"
b1001000001000000000000100000000010110000000000000001xxxxxxxx0000100100000110000000000010000000001001000001010000000000000000 S"
#17490
0H"
#17520
03
#17560
13
#17570
1H"
#17600
03
#17640
13
#17650
0H"
#17680
03
#17720
13
#17730
1H"
#17760
03
#17800
13
#17810
0H"
#17840
03
